"","group","PROPERTY_ZIP","ward","Total Single-Family and Multi-Family Properties","COVID Adjustment","NBHD Pre-COVID Unemployment","NBHD Post-COVID Unemployment"
"1","2 - 6 Unit Multi Family","0-0","1",9,-11.9772907299628,0.0456088907533806,0.15816087835471
"2","2 - 6 Unit Multi Family","0-0","10",2,-13.3566235447991,0.0484292608695652,0.19412747826087
"3","2 - 6 Unit Multi Family","0-0","12",2,-14.5642507144084,0.0496231883142626,0.214804420532633
"4","2 - 6 Unit Multi Family","0-0","14",3,-14.5587467385388,0.0472211492041683,0.190085100422883
"5","2 - 6 Unit Multi Family","0-0","15",3,-15.0374862894801,0.050789917873798,0.214019200255017
"6","2 - 6 Unit Multi Family","0-0","17",3,-12.628643266213,0.0457047609843264,0.166485103589163
"7","2 - 6 Unit Multi Family","0-0","18",2,-12.234057565698,0.0424351630867144,0.154724476266242
"8","2 - 6 Unit Multi Family","0-0","19",3,-10.7784750597607,0.0398924273160289,0.134450756933788
"9","2 - 6 Unit Multi Family","0-0","2",5,-9.80980585748957,0.0414340222094947,0.129674128165967
"10","2 - 6 Unit Multi Family","0-0","20",29,-12.2521671875485,0.0454811511073425,0.163687984566753
"11","2 - 6 Unit Multi Family","0-0","21",2,-11.7851958795065,0.043683827031601,0.150421537956073
"12","2 - 6 Unit Multi Family","0-0","22",3,-14.5697546902781,0.0514507322916272,0.203199717158103
"13","2 - 6 Unit Multi Family","0-0","23",50,-12.6695154234983,0.0429808994945647,0.15382962400175
"14","2 - 6 Unit Multi Family","0-0","24",7,-12.27948197256,0.0444874072461246,0.159370386028015
"15","2 - 6 Unit Multi Family","0-0","25",5,-13.1466827114661,0.0462498317595121,0.16995158878646
"16","2 - 6 Unit Multi Family","0-0","26",10,-13.670323396516,0.048374654465514,0.176725337398836
"17","2 - 6 Unit Multi Family","0-0","27",20,-10.7832956772646,0.0431898729368229,0.141642697386551
"18","2 - 6 Unit Multi Family","0-0","28",16,-11.6047345429992,0.0436305388429426,0.147614570451068
"19","2 - 6 Unit Multi Family","0-0","29",3,-12.2588940071997,0.0422714545266269,0.15104074320626
"20","2 - 6 Unit Multi Family","0-0","3",32,-11.6285288673877,0.0422676346860515,0.14781558308931
"21","2 - 6 Unit Multi Family","0-0","30",3,-13.2983505990914,0.0490363426362431,0.188609308047825
"22","2 - 6 Unit Multi Family","0-0","31",3,-13.7592967521394,0.0490944414909964,0.193872140974647
"23","2 - 6 Unit Multi Family","0-0","32",38,-11.9772907299628,0.0467574951845902,0.16121527404365
"24","2 - 6 Unit Multi Family","0-0","33",1,-12.7421723848902,0.0481146496815287,0.187831455169035
"25","2 - 6 Unit Multi Family","0-0","34",2,-11.710207285294,0.045712895377129,0.152092457420925
"26","2 - 6 Unit Multi Family","0-0","35",2,-13.3773932566743,0.049347135638996,0.187394570100933
"27","2 - 6 Unit Multi Family","0-0","36",1,-14.6123481161597,0.051589186012342,0.210292095210109
"28","2 - 6 Unit Multi Family","0-0","37",1,-12.5325830351994,0.0464430379746835,0.165575949367089
"29","2 - 6 Unit Multi Family","0-0","38",4,-13.1599262019896,0.0460270362760573,0.170599594554922
"30","2 - 6 Unit Multi Family","0-0","39",4,-13.1303040713735,0.0456802460645171,0.171425599195068
"31","2 - 6 Unit Multi Family","0-0","4",3,-11.6285288673877,0.0402654129680791,0.136483202136769
"32","2 - 6 Unit Multi Family","0-0","40",1,-11.7173738052761,0.0439141914191419,0.14712101210121
"33","2 - 6 Unit Multi Family","0-0","41",5,-12.3744137431586,0.0491157482882295,0.18867231822628
"34","2 - 6 Unit Multi Family","0-0","42",1,-9.86231219863526,0.0402430463576159,0.12747880794702
"35","2 - 6 Unit Multi Family","0-0","43",5,-9.90715005116057,0.0422767902128683,0.132730750891653
"36","2 - 6 Unit Multi Family","0-0","44",3,-10.2493068418147,0.0442653918215753,0.147100199664425
"37","2 - 6 Unit Multi Family","0-0","45",4,-12.6982985431081,0.0442609708733966,0.163158865322932
"38","2 - 6 Unit Multi Family","0-0","47",2,-11.6865496895284,0.0435230693745332,0.146774319343964
"39","2 - 6 Unit Multi Family","0-0","48",2,-12.0254380554205,0.0430315661675435,0.144400647511129
"40","2 - 6 Unit Multi Family","0-0","49",5,-12.8615643462893,0.043507526715519,0.156234419034639
"41","2 - 6 Unit Multi Family","0-0","5",5,-10.2133637573157,0.0400028977184333,0.133665754369475
"42","2 - 6 Unit Multi Family","0-0","6",50,-12.2521671875485,0.0441073331783859,0.160247966717737
"43","2 - 6 Unit Multi Family","0-0","7",1,-12.7896485244398,0.0459991266375546,0.156277729257642
"44","2 - 6 Unit Multi Family","0-0","8",1,-12.5877881458324,0.0446689342403628,0.164514739229025
"45","2 - 6 Unit Multi Family","0-0","9",44,-12.1150268668365,0.0435054360607023,0.156045944110539
"46","2 - 6 Unit Multi Family","0-0",NA,176,-13.8458320568649,0.0472709052472438,0.184063598418487
"47","2 - 6 Unit Multi Family","60004",NA,123,-13.4455302613578,0.0458685039153919,0.170448878059814
"48","2 - 6 Unit Multi Family","60005",NA,56,-12.5240033743284,0.0426746620204399,0.157055341217618
"49","2 - 6 Unit Multi Family","60007",NA,42,-13.2428294292556,0.0486556613601806,0.199288108810303
"50","2 - 6 Unit Multi Family","60008",NA,9,-13.4177576372619,0.0449426722762298,0.171792710491466
"51","2 - 6 Unit Multi Family","60010",NA,51,-12.7461613827422,0.0428654682904882,0.158488339747109
"52","2 - 6 Unit Multi Family","60015",NA,1,-13.0923599200872,0.0462334609075998,0.180846364133406
"53","2 - 6 Unit Multi Family","60016",NA,313,-13.1076188294022,0.0460628590015971,0.173084764730698
"54","2 - 6 Unit Multi Family","60018",NA,190,-13.2342962969586,0.0475846842339321,0.185195322213474
"55","2 - 6 Unit Multi Family","60022",NA,5,-10.1254873614089,0.0407535042735043,0.128203760683761
"56","2 - 6 Unit Multi Family","60025",NA,104,-12.2145366789221,0.042279929235129,0.154066745910516
"57","2 - 6 Unit Multi Family","60026",NA,18,-11.2680339317049,0.0421784572449496,0.140874645580217
"58","2 - 6 Unit Multi Family","60043",NA,9,-10.6960880947242,0.0386939797379614,0.133226283417487
"59","2 - 6 Unit Multi Family","60053",NA,66,-12.9579637748676,0.0445836636525571,0.16816499236461
"60","2 - 6 Unit Multi Family","60056",NA,371,-12.6033356925821,0.0473569720504449,0.178723280795517
"61","2 - 6 Unit Multi Family","60062",NA,74,-13.0923599200872,0.0455006187404836,0.175860742169721
"62","2 - 6 Unit Multi Family","60067",NA,138,-12.6718179699787,0.0450763680124245,0.163222088538347
"63","2 - 6 Unit Multi Family","60068",NA,273,-13.0432465074163,0.0452628075112335,0.168955025238833
"64","2 - 6 Unit Multi Family","60070",NA,111,-13.316661840771,0.0483739239924028,0.185680947659756
"65","2 - 6 Unit Multi Family","60074",NA,258,-13.1064852296509,0.0496364495051801,0.200941797878862
"66","2 - 6 Unit Multi Family","60076",NA,556,-13.0112980633806,0.0443465656011628,0.166131385813223
"67","2 - 6 Unit Multi Family","60077",NA,623,-13.1459969628282,0.0459511765364744,0.182081898070983
"68","2 - 6 Unit Multi Family","60090",NA,207,-13.2978051661795,0.0470550222557515,0.17703983295802
"69","2 - 6 Unit Multi Family","60091",NA,72,-10.3866844499996,0.0406657686053342,0.130243026436392
"70","2 - 6 Unit Multi Family","60093",NA,54,-10.1928039303312,0.0420227236894866,0.146225536505433
"71","2 - 6 Unit Multi Family","60103",NA,55,-13.7595442481649,0.0457266982622433,0.179315429173249
"72","2 - 6 Unit Multi Family","60104",NA,386,-12.6136579859179,0.045243698479428,0.171564659329004
"73","2 - 6 Unit Multi Family","60107",NA,1,-14.157481299597,0.048445704207609,0.186156714537667
"74","2 - 6 Unit Multi Family","60120",NA,42,-13.6952184715009,0.0455350190812653,0.175198380899321
"75","2 - 6 Unit Multi Family","60130",NA,824,-11.1987820754906,0.0419424112063703,0.143295240711538
"76","2 - 6 Unit Multi Family","60131",NA,264,-14.3120779161563,0.0465266533899392,0.188321933985001
"77","2 - 6 Unit Multi Family","60133",NA,72,-14.0037565603858,0.0479693601540632,0.190559977906532
"78","2 - 6 Unit Multi Family","60153",NA,797,-12.2236760119118,0.0451845463911988,0.164497781274315
"79","2 - 6 Unit Multi Family","60154",NA,235,-13.0040457311849,0.0433774837395675,0.160663877497612
"80","2 - 6 Unit Multi Family","60155",NA,182,-12.6332975766612,0.0454118325046186,0.164142440094968
"81","2 - 6 Unit Multi Family","60160",NA,1083,-14.4113295778555,0.0485733282551325,0.197456135341399
"82","2 - 6 Unit Multi Family","60162",NA,63,-13.5830473963803,0.0458661543098252,0.172497114225437
"83","2 - 6 Unit Multi Family","60163",NA,32,-13.5830473963803,0.0432865101472344,0.174033426183844
"84","2 - 6 Unit Multi Family","60164",NA,81,-14.2586927294715,0.0476220103814621,0.192793332763093
"85","2 - 6 Unit Multi Family","60165",NA,186,-15.1861548254498,0.0498394761084886,0.210459379518706
"86","2 - 6 Unit Multi Family","60169",NA,1,-12.9985902192384,0.0485457713018689,0.184501742160279
"87","2 - 6 Unit Multi Family","60171",NA,331,-14.6342611938231,0.0479579394791692,0.200759391707329
"88","2 - 6 Unit Multi Family","60176",NA,301,-14.1584112097675,0.0497543800049711,0.198948622260345
"89","2 - 6 Unit Multi Family","60192",NA,1,-12.424891678693,0.0431960784313725,0.157353973168215
"90","2 - 6 Unit Multi Family","60193",NA,49,-13.2850430436101,0.0446130175890639,0.161212085792304
"91","2 - 6 Unit Multi Family","60195",NA,1,-11.8274315808386,0.0440657026092424,0.1455730902232
"92","2 - 6 Unit Multi Family","60201",NA,813,-12.0778758580327,0.0435263864059154,0.155882042895406
"93","2 - 6 Unit Multi Family","60202",NA,914,-12.7069304642738,0.0433773862769849,0.156982385064959
"94","2 - 6 Unit Multi Family","60203",NA,67,-11.6278061802712,0.0405140803266129,0.134886969015561
"95","2 - 6 Unit Multi Family","60301",NA,18,-10.1684783861293,0.0415734720416125,0.141847420892935
"96","2 - 6 Unit Multi Family","60302",NA,633,-11.0690377765544,0.0419632128075803,0.140901383852375
"97","2 - 6 Unit Multi Family","60304",NA,386,-11.5141772897071,0.0414576108735073,0.140722701566859
"98","2 - 6 Unit Multi Family","60305",NA,97,-11.503471672128,0.0421896687776703,0.143182957883292
"99","2 - 6 Unit Multi Family","60402",NA,3115,-14.0872197622237,0.0484900499340555,0.19160227440003
"100","2 - 6 Unit Multi Family","60406",NA,974,-14.1020668384108,0.0485355425243269,0.193727130294462
"101","2 - 6 Unit Multi Family","60409",NA,1037,-12.767282029814,0.0450287230178295,0.163770476746282
"102","2 - 6 Unit Multi Family","60411",NA,1104,-14.190976910192,0.0487350690519475,0.19345898716937
"103","2 - 6 Unit Multi Family","60415",NA,245,-13.3139744445986,0.0490114130834268,0.193202752129041
"104","2 - 6 Unit Multi Family","60418",NA,86,-14.0335145818974,0.0457749554820789,0.170414740588483
"105","2 - 6 Unit Multi Family","60419",NA,315,-12.4705058769941,0.0434518943214458,0.159781180377746
"106","2 - 6 Unit Multi Family","60422",NA,7,-11.3894237508594,0.0391009728279101,0.133478698423348
"107","2 - 6 Unit Multi Family","60425",NA,24,-14.2904576567352,0.0448824851200479,0.177845652348447
"108","2 - 6 Unit Multi Family","60426",NA,832,-13.1374900344884,0.0469129352890286,0.176092241827441
"109","2 - 6 Unit Multi Family","60428",NA,9,-12.2847062830573,0.0436248621316191,0.160143574960676
"110","2 - 6 Unit Multi Family","60429",NA,90,-12.9147323247535,0.0436337265036657,0.158174785514342
"111","2 - 6 Unit Multi Family","60430",NA,124,-12.3919674680186,0.0433174187387758,0.157223918558984
"112","2 - 6 Unit Multi Family","60438",NA,318,-12.8233859487773,0.0447361319174957,0.166177980001966
"113","2 - 6 Unit Multi Family","60439",NA,135,-13.2927632806466,0.0448887845474605,0.173076615432785
"114","2 - 6 Unit Multi Family","60443",NA,87,-12.7487741791098,0.044377992785218,0.165115241186003
"115","2 - 6 Unit Multi Family","60445",NA,132,-14.0335145818974,0.0474184031354145,0.187931256288934
"116","2 - 6 Unit Multi Family","60452",NA,123,-13.8306704330695,0.0474883118818052,0.186869126018911
"117","2 - 6 Unit Multi Family","60453",NA,509,-13.3045521482446,0.0444320841637504,0.165498365300095
"118","2 - 6 Unit Multi Family","60455",NA,198,-14.0615395581322,0.0471688384733535,0.188982816341004
"119","2 - 6 Unit Multi Family","60456",NA,2,-13.5257351663532,0.0482503740648379,0.186556608478803
"120","2 - 6 Unit Multi Family","60457",NA,109,-14.1774993835308,0.0462845513211328,0.184586519126807
"121","2 - 6 Unit Multi Family","60458",NA,236,-14.0899262269141,0.0503367782495283,0.202821888447974
"122","2 - 6 Unit Multi Family","60459",NA,320,-13.6828379805023,0.0479066469388527,0.186743996192025
"123","2 - 6 Unit Multi Family","60462",NA,219,-12.7765220168982,0.046831473738409,0.17472648055997
"124","2 - 6 Unit Multi Family","60463",NA,6,-12.9021196723054,0.0445991284441519,0.167299241996946
"125","2 - 6 Unit Multi Family","60464",NA,1,-13.2057954954478,0.0458083989501312,0.174287401574803
"126","2 - 6 Unit Multi Family","60465",NA,115,-13.6516182953529,0.0465449100983099,0.185032152308851
"127","2 - 6 Unit Multi Family","60466",NA,1,-11.7975787118377,0.0436088397790055,0.156485082872928
"128","2 - 6 Unit Multi Family","60469",NA,118,-13.7732484439891,0.0498557246910941,0.196504951016603
"129","2 - 6 Unit Multi Family","60471",NA,49,-12.074284333279,0.0411672259714299,0.148096963151212
"130","2 - 6 Unit Multi Family","60472",NA,98,-13.5705067152002,0.0453772771986521,0.178881033835104
"131","2 - 6 Unit Multi Family","60473",NA,45,-11.4655212575953,0.0429590738277247,0.152943150116788
"132","2 - 6 Unit Multi Family","60475",NA,74,-14.3713012877871,0.0438987150415722,0.178148148148148
"133","2 - 6 Unit Multi Family","60476",NA,19,-13.6044561064104,0.0456190781049936,0.178256081946223
"134","2 - 6 Unit Multi Family","60477",NA,207,-13.4142432779485,0.0456160643931938,0.173225331430081
"135","2 - 6 Unit Multi Family","60478",NA,12,-11.7359990359534,0.0423317134933305,0.146724196583154
"136","2 - 6 Unit Multi Family","60480",NA,44,-13.4515608050595,0.0495314192679464,0.190310499402315
"137","2 - 6 Unit Multi Family","60482",NA,120,-13.7607692088242,0.0471903065106476,0.183409116869731
"138","2 - 6 Unit Multi Family","60487",NA,1,-12.9241113270217,0.0438930514859774,0.160891167852658
"139","2 - 6 Unit Multi Family","60501",NA,659,-14.7342077395905,0.0502061041074203,0.207642492885285
"140","2 - 6 Unit Multi Family","60513",NA,560,-13.6048093049434,0.0431711918459639,0.16177707864984
"141","2 - 6 Unit Multi Family","60525",NA,290,-11.115039487466,0.0451383255916403,0.158630949371268
"142","2 - 6 Unit Multi Family","60526",NA,171,-12.3145210286621,0.0447630703029198,0.16047262095249
"143","2 - 6 Unit Multi Family","60534",NA,325,-13.3630015597702,0.0463769389879454,0.177324078192228
"144","2 - 6 Unit Multi Family","60546",NA,293,-12.0171794081797,0.0449930840632713,0.163213993515384
"145","2 - 6 Unit Multi Family","60558",NA,54,-10.4215573454467,0.0401132291106842,0.127583271139672
"146","2 - 6 Unit Multi Family","60601","42",1,-10.2176759111006,0.0396520350212967,0.118888310459063
"147","2 - 6 Unit Multi Family","60604","42",1,-10.2176759111006,0.0452024353120244,0.154190258751903
"148","2 - 6 Unit Multi Family","60605","3",5,-10.1956805639422,0.039190838083175,0.120862993455774
"149","2 - 6 Unit Multi Family","60605","4",5,-10.2176759111006,0.0411683436538342,0.129691453731506
"150","2 - 6 Unit Multi Family","60606","42",1,-10.2176759111006,0.040664185110664,0.123978269617706
"151","2 - 6 Unit Multi Family","60607","11",10,-10.9299871134383,0.0459605067064083,0.152862891207153
"152","2 - 6 Unit Multi Family","60607","25",198,-10.9299871134383,0.0453936113757957,0.15035137710127
"153","2 - 6 Unit Multi Family","60607","27",50,-10.7832956772646,0.0417483027852479,0.133688777266987
"154","2 - 6 Unit Multi Family","60607","28",357,-10.9299871134383,0.0408693705322976,0.133239225356772
"155","2 - 6 Unit Multi Family","60607","42",2,-10.7832956772646,0.0401759906759907,0.123138461538462
"156","2 - 6 Unit Multi Family","60608","11",1530,-12.9967501007198,0.0497683826859451,0.187218895457067
"157","2 - 6 Unit Multi Family","60608","12",752,-13.6534861188165,0.0500878388593935,0.192538782316824
"158","2 - 6 Unit Multi Family","60608","24",238,-14.5697546902781,0.0493737689586936,0.191496133454101
"159","2 - 6 Unit Multi Family","60608","25",3254,-13.1466827114661,0.0490562661950283,0.186420974072423
"160","2 - 6 Unit Multi Family","60608","28",124,-12.8537491105896,0.0450757151091602,0.169764440604597
"161","2 - 6 Unit Multi Family","60608",NA,2,-14.9623570299641,0.0516712802768166,0.216589388696655
"162","2 - 6 Unit Multi Family","60609","11",1044,-12.9967501007198,0.0453815513915073,0.166250436016062
"163","2 - 6 Unit Multi Family","60609","12",929,-13.6534861188165,0.0490946128383434,0.190762599959
"164","2 - 6 Unit Multi Family","60609","14",18,-14.1892941275161,0.0478833909542979,0.186746088878364
"165","2 - 6 Unit Multi Family","60609","15",1488,-15.0374862894801,0.0523031624888526,0.21685372351629
"166","2 - 6 Unit Multi Family","60609","16",741,-13.4748871390266,0.0519980950324714,0.214297220704929
"167","2 - 6 Unit Multi Family","60609","20",1453,-13.4748871390266,0.049363543312353,0.196827123138608
"168","2 - 6 Unit Multi Family","60609","3",334,-11.6285288673877,0.0449376932544822,0.156472000575968
"169","2 - 6 Unit Multi Family","60610","2",118,-10.2528139152994,0.0418820749352264,0.134758060632304
"170","2 - 6 Unit Multi Family","60610","27",94,-10.2528139152994,0.0424216508254848,0.128998148519496
"171","2 - 6 Unit Multi Family","60610","43",17,-9.80980585748957,0.039763783269962,0.120180133079848
"172","2 - 6 Unit Multi Family","60611","2",12,-9.80980585748957,0.042172558829197,0.133470939840583
"173","2 - 6 Unit Multi Family","60611","42",19,-9.80980585748957,0.0414801639550158,0.129043053155148
"174","2 - 6 Unit Multi Family","60612","1",160,-11.4924083626511,0.0469661410170501,0.173937809545082
"175","2 - 6 Unit Multi Family","60612","12",1,-13.6534861188165,0.0528554502369668,0.209367298578199
"176","2 - 6 Unit Multi Family","60612","24",106,-12.27948197256,0.0421954544895404,0.152824464866228
"177","2 - 6 Unit Multi Family","60612","26",373,-11.4924083626511,0.0461527942243187,0.167220068804173
"178","2 - 6 Unit Multi Family","60612","27",922,-12.27948197256,0.0440504142092138,0.155483084087274
"179","2 - 6 Unit Multi Family","60612","28",962,-12.27948197256,0.0428958206206281,0.15250172886515
"180","2 - 6 Unit Multi Family","60612","43",1,-9.82732452065063,0.040120887245841,0.118376340110906
"181","2 - 6 Unit Multi Family","60613","44",539,-10.2493068418147,0.0434055718094693,0.136351052637536
"182","2 - 6 Unit Multi Family","60613","46",181,-10.2493068418147,0.0440962731960374,0.149345806983312
"183","2 - 6 Unit Multi Family","60613","47",859,-10.2993373177723,0.0434828691188377,0.140171941113094
"184","2 - 6 Unit Multi Family","60614","2",287,-9.90715005116057,0.0418895330687603,0.13040689581281
"185","2 - 6 Unit Multi Family","60614","32",387,-10.2993373177723,0.042504406912959,0.139140225369162
"186","2 - 6 Unit Multi Family","60614","43",1619,-9.90715005116057,0.0420156309438177,0.129339614143676
"187","2 - 6 Unit Multi Family","60614","44",23,-9.93518832594344,0.0427063689591392,0.132304825705044
"188","2 - 6 Unit Multi Family","60615","3",301,-11.6285288673877,0.0423654969218925,0.140705774150333
"189","2 - 6 Unit Multi Family","60615","4",204,-11.6285288673877,0.0408455619761616,0.141334944269723
"190","2 - 6 Unit Multi Family","60615","5",137,-10.2133637573157,0.0407018669468944,0.135756660988008
"191","2 - 6 Unit Multi Family","60616","11",1920,-13.3019316164096,0.0504927417361199,0.195047589956351
"192","2 - 6 Unit Multi Family","60616","25",326,-13.3019316164096,0.0558620550642729,0.220407495494607
"193","2 - 6 Unit Multi Family","60616","3",61,-11.7236080884163,0.0391613481195997,0.132511001651339
"194","2 - 6 Unit Multi Family","60616","4",82,-11.7236080884163,0.0391449227482613,0.134139179717463
"195","2 - 6 Unit Multi Family","60617","10",2406,-13.1600523291972,0.04903892712046,0.191401276837776
"196","2 - 6 Unit Multi Family","60617","7",1403,-12.7896485244398,0.046242612029807,0.169120591049275
"197","2 - 6 Unit Multi Family","60617","8",364,-12.0558910611978,0.044412582845958,0.161939449048415
"198","2 - 6 Unit Multi Family","60618","30",1406,-13.2983505990914,0.0502915428857309,0.198920545156172
"199","2 - 6 Unit Multi Family","60618","32",705,-11.1474087683828,0.0435771980650983,0.14947562818613
"200","2 - 6 Unit Multi Family","60618","33",2463,-12.7421723848902,0.0476061791534681,0.17523934138849
"201","2 - 6 Unit Multi Family","60618","35",1495,-13.2983505990914,0.048169882925406,0.1852510475696
"202","2 - 6 Unit Multi Family","60618","39",71,-12.7421723848902,0.0487432847275518,0.180493476592479
"203","2 - 6 Unit Multi Family","60618","45",212,-13.2983505990914,0.045543812827818,0.158751341453034
"204","2 - 6 Unit Multi Family","60618","47",1408,-11.1474087683828,0.0438498279494399,0.146538562675075
"205","2 - 6 Unit Multi Family","60619","5",222,-11.5445163324061,0.0409254049320784,0.143283634165323
"206","2 - 6 Unit Multi Family","60619","6",1825,-12.2521671875485,0.0450049915436599,0.161189569897324
"207","2 - 6 Unit Multi Family","60619","7",53,-11.5445163324061,0.0423053960964409,0.14603214695752
"208","2 - 6 Unit Multi Family","60619","8",1513,-12.0085507140213,0.0434444876970017,0.152669268773937
"209","2 - 6 Unit Multi Family","60619","9",195,-12.0085507140213,0.0420846759262048,0.145955757090212
"210","2 - 6 Unit Multi Family","60620","17",1286,-11.8424120078334,0.0450943971430456,0.15995345777485
"211","2 - 6 Unit Multi Family","60620","18",46,-12.008535224142,0.0441264830524386,0.156015024850932
"212","2 - 6 Unit Multi Family","60620","21",1756,-11.8424120078334,0.0444663860635123,0.153659972717948
"213","2 - 6 Unit Multi Family","60620","6",183,-11.5298165702732,0.0468013427998424,0.166306858396562
"214","2 - 6 Unit Multi Family","60621","16",937,-12.2454764323855,0.0485349064572428,0.184241131460666
"215","2 - 6 Unit Multi Family","60621","17",59,-12.4987546512283,0.0511917989417989,0.196283068783069
"216","2 - 6 Unit Multi Family","60621","20",533,-13.0819591076323,0.0465931431782977,0.178987231332378
"217","2 - 6 Unit Multi Family","60621","3",93,-13.0819591076323,0.0446930374407822,0.178026515596145
"218","2 - 6 Unit Multi Family","60621","6",1543,-12.4987546512283,0.0470591011078813,0.17391730001161
"219","2 - 6 Unit Multi Family","60622","1",1976,-11.4924083626511,0.0450739974967047,0.152867316424474
"220","2 - 6 Unit Multi Family","60622","2",1112,-10.6687091732549,0.043196274344156,0.143733519479136
"221","2 - 6 Unit Multi Family","60622","26",1158,-11.9772907299628,0.0473248349746059,0.173056585310541
"222","2 - 6 Unit Multi Family","60622","27",19,-11.4924083626511,0.04492962469355,0.1522216647961
"223","2 - 6 Unit Multi Family","60622","32",308,-10.3957713167397,0.0420949845699791,0.134992946864145
"224","2 - 6 Unit Multi Family","60623","12",1245,-14.5697546902781,0.0508436586519557,0.208307494974575
"225","2 - 6 Unit Multi Family","60623","22",3896,-14.5697546902781,0.0500869648327354,0.203907046995819
"226","2 - 6 Unit Multi Family","60623","24",2923,-12.8537491105896,0.0449948374482105,0.166796692596455
"227","2 - 6 Unit Multi Family","60623","26",1,-14.1823518156057,0.0508623962040332,0.203075523922499
"228","2 - 6 Unit Multi Family","60624","24",1004,-12.27948197256,0.044559591394562,0.160271383952222
"229","2 - 6 Unit Multi Family","60624","27",608,-13.0286392424583,0.0483166530317922,0.180061602072567
"230","2 - 6 Unit Multi Family","60624","28",2003,-12.27948197256,0.0465910253437808,0.17075953932007
"231","2 - 6 Unit Multi Family","60624","37",126,-13.0286392424583,0.0485060976849154,0.182448690434405
"232","2 - 6 Unit Multi Family","60624","45",1,-12.7421723848902,0.0487432847275518,0.180493476592479
"233","2 - 6 Unit Multi Family","60625","33",1114,-13.4564359142573,0.0479989027669628,0.180723718729229
"234","2 - 6 Unit Multi Family","60625","35",528,-13.4564359142573,0.0502040529266243,0.199712508956656
"235","2 - 6 Unit Multi Family","60625","39",491,-13.1303040713735,0.0429987184434446,0.166884073793352
"236","2 - 6 Unit Multi Family","60625","40",1392,-11.6865496895284,0.044513205533624,0.159427416338782
"237","2 - 6 Unit Multi Family","60625","47",667,-11.6865496895284,0.0427104669993649,0.145671625838526
"238","2 - 6 Unit Multi Family","60626","40",86,-12.8615643462893,0.0487202498356345,0.186134779750164
"239","2 - 6 Unit Multi Family","60626","49",785,-12.8615643462893,0.047774569899286,0.180094530711672
"240","2 - 6 Unit Multi Family","60626","50",2,-12.3126556642466,0.0506841322928279,0.193646228167967
"241","2 - 6 Unit Multi Family","60628","19",1,-10.9259900704282,0.0389294911097486,0.131315757204169
"242","2 - 6 Unit Multi Family","60628","21",46,-11.7851958795065,0.0425223693403,0.154653623097734
"243","2 - 6 Unit Multi Family","60628","34",1048,-11.710207285294,0.0443059932177896,0.152442582269661
"244","2 - 6 Unit Multi Family","60628","8",13,-11.3240562627938,0.0431098717233687,0.146566648075851
"245","2 - 6 Unit Multi Family","60628","9",1637,-12.9280604003229,0.0434763950268971,0.159836342116899
"246","2 - 6 Unit Multi Family","60629","13",708,-14.1210352359317,0.0489720858087664,0.1956827493476
"247","2 - 6 Unit Multi Family","60629","14",136,-14.1892941275161,0.0528626681533074,0.212543303323862
"248","2 - 6 Unit Multi Family","60629","15",83,-14.1892941275161,0.0470649978041282,0.193700483091787
"249","2 - 6 Unit Multi Family","60629","16",949,-13.9982187285202,0.0504924769519365,0.201314764303896
"250","2 - 6 Unit Multi Family","60629","17",916,-12.628643266213,0.0473476785605215,0.177493782642508
"251","2 - 6 Unit Multi Family","60629","18",430,-12.628643266213,0.0445649853100399,0.164702563101978
"252","2 - 6 Unit Multi Family","60629","23",630,-14.1210352359317,0.0507013951223284,0.208133930017211
"253","2 - 6 Unit Multi Family","60630","33",1,-13.4564359142573,0.0508963007883566,0.196966040024257
"254","2 - 6 Unit Multi Family","60630","35",3,-13.4564359142573,0.0505283018867924,0.205100145137881
"255","2 - 6 Unit Multi Family","60630","38",411,-13.0863210848091,0.0435612692038258,0.165442628920404
"256","2 - 6 Unit Multi Family","60630","39",857,-13.1279529479358,0.0450222890735833,0.168548748058657
"257","2 - 6 Unit Multi Family","60630","45",1899,-12.6540042575947,0.0436848518786953,0.160956078971368
"258","2 - 6 Unit Multi Family","60631","41",429,-12.0535789456712,0.0428818974162932,0.151209182653315
"259","2 - 6 Unit Multi Family","60632","12",1421,-14.5587467385388,0.0518814579705784,0.212433079351942
"260","2 - 6 Unit Multi Family","60632","13",21,-14.1210352359317,0.0492072755900293,0.192088944618233
"261","2 - 6 Unit Multi Family","60632","14",2369,-14.1892941275161,0.0498458884171711,0.202207829160582
"262","2 - 6 Unit Multi Family","60632","15",1991,-14.5587467385388,0.0512032446327834,0.208647309314451
"263","2 - 6 Unit Multi Family","60632","16",7,-14.1892941275161,0.05354332247557,0.21062671009772
"264","2 - 6 Unit Multi Family","60632","22",36,-12.8194052383374,0.0479387417218543,0.181837748344371
"265","2 - 6 Unit Multi Family","60632","23",298,-14.1210352359317,0.0491751963970277,0.195195222058265
"266","2 - 6 Unit Multi Family","60632",NA,1,-12.6247683683457,0.041167094017094,0.147874358974359
"267","2 - 6 Unit Multi Family","60633","10",361,-12.7413601813826,0.0461298773866018,0.173453625283913
"268","2 - 6 Unit Multi Family","60633",NA,76,-12.767282029814,0.0463378378378378,0.174403055229142
"269","2 - 6 Unit Multi Family","60634","29",132,-12.957909602583,0.0465143232457265,0.179220455467969
"270","2 - 6 Unit Multi Family","60634","30",318,-13.7908166076467,0.0475768409244645,0.19170107590017
"271","2 - 6 Unit Multi Family","60634","31",57,-13.7908166076467,0.047570018206997,0.19297069062966
"272","2 - 6 Unit Multi Family","60634","35",1,-13.2983505990914,0.0498597820937944,0.19956229275225
"273","2 - 6 Unit Multi Family","60634","36",502,-13.3619428013962,0.0462344933400757,0.177386964413882
"274","2 - 6 Unit Multi Family","60634","38",1256,-13.0863210848091,0.0463122182897935,0.175975835716543
"275","2 - 6 Unit Multi Family","60636","15",649,-13.3201511070777,0.0474756708963674,0.181252273387266
"276","2 - 6 Unit Multi Family","60636","16",1209,-12.4321765527419,0.0463039146876528,0.164930307615395
"277","2 - 6 Unit Multi Family","60636","17",421,-12.4987546512283,0.0460662788856467,0.167195076727417
"278","2 - 6 Unit Multi Family","60636","18",19,-12.6530598697171,0.042296875,0.152725
"279","2 - 6 Unit Multi Family","60636","20",1,-13.0819591076323,0.0479154285714286,0.181085714285714
"280","2 - 6 Unit Multi Family","60636","6",95,-12.4321765527419,0.045831492743375,0.156348666563288
"281","2 - 6 Unit Multi Family","60636","8",1,-11.5445163324061,0.0423053960964409,0.14603214695752
"282","2 - 6 Unit Multi Family","60637","20",1732,-12.2521671875485,0.0450608391093271,0.160861771149004
"283","2 - 6 Unit Multi Family","60637","3",1,-11.6285288673877,0.0457912234042553,0.170239361702128
"284","2 - 6 Unit Multi Family","60637","5",489,-11.5445163324061,0.0406321074734289,0.136569144853491
"285","2 - 6 Unit Multi Family","60637","6",339,-12.2521671875485,0.0476140961077908,0.176225588728621
"286","2 - 6 Unit Multi Family","60638","13",420,-12.6695154234983,0.046069225586383,0.171209758229384
"287","2 - 6 Unit Multi Family","60638","14",126,-14.0069410202226,0.0456712892667592,0.180763571994804
"288","2 - 6 Unit Multi Family","60638","16",1,-12.2454764323855,0.0422235294117647,0.121458823529412
"289","2 - 6 Unit Multi Family","60638","22",15,-14.0069410202226,0.051061274155647,0.20586221757597
"290","2 - 6 Unit Multi Family","60638","23",305,-12.6695154234983,0.0447207140915211,0.170535954718121
"291","2 - 6 Unit Multi Family","60638",NA,48,-14.5375601487776,0.0478084067884713,0.193823713207477
"292","2 - 6 Unit Multi Family","60639","26",409,-13.9876411038008,0.0490677774275281,0.196786571536332
"293","2 - 6 Unit Multi Family","60639","29",665,-13.0080120250502,0.0466090562924007,0.175828456179937
"294","2 - 6 Unit Multi Family","60639","30",877,-13.8845879338359,0.049416015151188,0.193607897548768
"295","2 - 6 Unit Multi Family","60639","31",1189,-14.1530527532116,0.0488095332604104,0.196480318583408
"296","2 - 6 Unit Multi Family","60639","35",654,-13.670323396516,0.0479082880673357,0.189022224456513
"297","2 - 6 Unit Multi Family","60639","36",1659,-14.2849616362051,0.0500401749712654,0.203311709783601
"298","2 - 6 Unit Multi Family","60639","37",729,-13.0080120250502,0.0441722823986554,0.162500867782279
"299","2 - 6 Unit Multi Family","60640","40",555,-12.0254380554205,0.0438701805463708,0.153925126571774
"300","2 - 6 Unit Multi Family","60640","46",204,-12.666140566882,0.046522847442875,0.169467275505777
"301","2 - 6 Unit Multi Family","60640","47",474,-11.678431998054,0.0445622571962262,0.155768365288959
"302","2 - 6 Unit Multi Family","60640","48",463,-12.0254380554205,0.0438724664821522,0.149608449473474
"303","2 - 6 Unit Multi Family","60641","30",1014,-13.3619428013962,0.0488710667258053,0.189290760593457
"304","2 - 6 Unit Multi Family","60641","31",1555,-13.8913344380084,0.0487866220210729,0.193778285910022
"305","2 - 6 Unit Multi Family","60641","36",73,-13.7592967521394,0.0486632915545336,0.189345918694908
"306","2 - 6 Unit Multi Family","60641","38",394,-13.0863210848091,0.0435376036356362,0.159949632998958
"307","2 - 6 Unit Multi Family","60641","39",131,-11.7131855588966,0.0444844066767683,0.165229387411157
"308","2 - 6 Unit Multi Family","60641","45",891,-12.081217938616,0.0457324705387791,0.166742694178011
"309","2 - 6 Unit Multi Family","60642","1",347,-11.4924083626511,0.0452432835087556,0.154891132745098
"310","2 - 6 Unit Multi Family","60642","2",418,-11.4924083626511,0.0462028989762238,0.158456926393782
"311","2 - 6 Unit Multi Family","60642","27",365,-11.4924083626511,0.0439575050810624,0.146129516689843
"312","2 - 6 Unit Multi Family","60642","32",10,-10.3957713167397,0.0425860445205479,0.141265410958904
"313","2 - 6 Unit Multi Family","60643","19",297,-10.8426289311593,0.0399002876399274,0.13231870105797
"314","2 - 6 Unit Multi Family","60643","21",48,-11.4970109106778,0.0437751202080715,0.150795327659365
"315","2 - 6 Unit Multi Family","60643","34",317,-11.4970109106778,0.0420438885210845,0.143860664388335
"316","2 - 6 Unit Multi Family","60644","24",73,-12.27948197256,0.0458125951852992,0.162015698361979
"317","2 - 6 Unit Multi Family","60644","28",1113,-12.5325830351994,0.0440355978278732,0.161939893023713
"318","2 - 6 Unit Multi Family","60644","29",1459,-12.5325830351994,0.0450534843291734,0.163298069659847
"319","2 - 6 Unit Multi Family","60644","37",727,-12.5325830351994,0.0455067351674863,0.165313188088915
"320","2 - 6 Unit Multi Family","60645","49",224,-12.392355074726,0.0471871808840309,0.171251865353527
"321","2 - 6 Unit Multi Family","60645","50",1042,-13.0623002507024,0.0474158552330523,0.176979134744171
"322","2 - 6 Unit Multi Family","60646","39",442,-12.6548686896962,0.0428564268336316,0.156977135939918
"323","2 - 6 Unit Multi Family","60646","41",62,-10.6415622424457,0.0400414258544311,0.130672003221731
"324","2 - 6 Unit Multi Family","60646","45",426,-12.6548686896962,0.0437133743496945,0.162756653432618
"325","2 - 6 Unit Multi Family","60647","1",2058,-11.9772907299628,0.0461069727779956,0.163035715666038
"326","2 - 6 Unit Multi Family","60647","2",45,-10.6687091732549,0.0424558585097845,0.133842578915267
"327","2 - 6 Unit Multi Family","60647","25",1,-13.1466827114661,0.0517512915129151,0.210145387453875
"328","2 - 6 Unit Multi Family","60647","26",1110,-13.670323396516,0.0490839251343577,0.189260392541258
"329","2 - 6 Unit Multi Family","60647","30",49,-13.2983505990914,0.0491158614792646,0.190003420265071
"330","2 - 6 Unit Multi Family","60647","31",514,-13.2983505990914,0.0480196459073235,0.187688089573543
"331","2 - 6 Unit Multi Family","60647","32",1994,-11.2521222080281,0.0449286713012503,0.149893186126969
"332","2 - 6 Unit Multi Family","60647","33",54,-11.9617119105084,0.0480678338463258,0.173763579656798
"333","2 - 6 Unit Multi Family","60647","35",1288,-13.670323396516,0.0480058952264138,0.176939329009701
"334","2 - 6 Unit Multi Family","60649","5",371,-11.4654851702449,0.0406522730841201,0.13395798189608
"335","2 - 6 Unit Multi Family","60649","7",892,-12.0558910611978,0.0442570505166176,0.156004091517815
"336","2 - 6 Unit Multi Family","60649","8",478,-12.0558910611978,0.0426256320472985,0.148359901231551
"337","2 - 6 Unit Multi Family","60651","26",1382,-14.1823518156057,0.050257423087858,0.198348712482999
"338","2 - 6 Unit Multi Family","60651","27",648,-12.9193482633815,0.0468782350522215,0.174185945500396
"339","2 - 6 Unit Multi Family","60651","28",1,-13.0286392424583,0.0485393700787402,0.199622047244094
"340","2 - 6 Unit Multi Family","60651","29",701,-12.5325830351994,0.0444110536468438,0.170473310656548
"341","2 - 6 Unit Multi Family","60651","36",1,-14.2849616362051,0.0491431041936879,0.195105058365759
"342","2 - 6 Unit Multi Family","60651","37",2523,-12.5325830351994,0.0465680528176161,0.17545652932172
"343","2 - 6 Unit Multi Family","60652","18",267,-12.234057565698,0.0445275564507368,0.163418564474804
"344","2 - 6 Unit Multi Family","60653","11",1,-12.5841032892216,0.0454846989141165,0.163908193484699
"345","2 - 6 Unit Multi Family","60653","3",490,-11.6285288673877,0.0422995072414716,0.148007499208571
"346","2 - 6 Unit Multi Family","60653","4",423,-11.6285288673877,0.0423383613577519,0.150072114429916
"347","2 - 6 Unit Multi Family","60654","2",10,-9.86231219863526,0.0402430463576159,0.12747880794702
"348","2 - 6 Unit Multi Family","60654","27",21,-11.4924083626511,0.0422664787642592,0.138870191658466
"349","2 - 6 Unit Multi Family","60654","42",44,-9.86231219863526,0.040575205005528,0.127955322418469
"350","2 - 6 Unit Multi Family","60655","19",173,-10.9259900704282,0.0392323466808552,0.129294246494337
"351","2 - 6 Unit Multi Family","60656","38",74,-12.3744137431586,0.041504745470233,0.14509404659189
"352","2 - 6 Unit Multi Family","60656","41",469,-12.3744137431586,0.0475128054760272,0.177774392969747
"353","2 - 6 Unit Multi Family","60656","45",26,-12.3780716705547,0.0452300859871808,0.165339983775214
"354","2 - 6 Unit Multi Family","60657","26",1,-11.9772907299628,0.0482870662460568,0.17817665615142
"355","2 - 6 Unit Multi Family","60657","32",766,-10.3784282983716,0.0417395052900638,0.132940123676072
"356","2 - 6 Unit Multi Family","60657","44",1470,-10.2493068418147,0.0432627220253384,0.136851504263102
"357","2 - 6 Unit Multi Family","60657","46",9,-10.6776683291529,0.0450592042220615,0.148444600837274
"358","2 - 6 Unit Multi Family","60657","47",295,-10.2993373177723,0.042312576985616,0.135561552737508
"359","2 - 6 Unit Multi Family","60659","39",274,-13.1303040713735,0.0445607483799811,0.16815050829762
"360","2 - 6 Unit Multi Family","60659","40",974,-13.6797898115625,0.0459597999020519,0.177548945079418
"361","2 - 6 Unit Multi Family","60659","50",666,-13.6797898115625,0.0484617753433842,0.189611403657533
"362","2 - 6 Unit Multi Family","60660","40",216,-13.0214299314329,0.0459609266011781,0.171725730620182
"363","2 - 6 Unit Multi Family","60660","48",810,-12.0254380554205,0.0449715006827605,0.16183179918011
"364","2 - 6 Unit Multi Family","60660","49",2,-13.1542057140832,0.0517548138639281,0.206970474967908
"365","2 - 6 Unit Multi Family","60660","50",1,-12.3126556642466,0.0506841322928279,0.193646228167967
"366","2 - 6 Unit Multi Family","60661","27",6,-10.7832956772646,0.0413872828563029,0.131937751315363
"367","2 - 6 Unit Multi Family","60661","42",4,-10.7832956772646,0.0401036996825505,0.123986571374835
"368","2 - 6 Unit Multi Family","60706",NA,313,-13.6776056597502,0.0455432042020856,0.175126720674378
"369","2 - 6 Unit Multi Family","60707","29",252,-13.7908166076467,0.0472133117227466,0.18697335446119
"370","2 - 6 Unit Multi Family","60707","36",214,-13.7908166076467,0.0497190834449819,0.204153032982501
"371","2 - 6 Unit Multi Family","60707",NA,848,-13.4357381507697,0.0459598860389702,0.178105336920922
"372","2 - 6 Unit Multi Family","60712",NA,95,-12.9664010481455,0.0429327904647905,0.168324196108173
"373","2 - 6 Unit Multi Family","60714","31",1,-14.1530527532116,0.0475388127853881,0.185149771689498
"374","2 - 6 Unit Multi Family","60714",NA,434,-13.2910230996155,0.0449054022505148,0.171554647281153
"375","2 - 6 Unit Multi Family","60803",NA,215,-13.6301263167198,0.0460157424739097,0.179181433395641
"376","2 - 6 Unit Multi Family","60804",NA,5133,-14.8149407290906,0.0503647154951564,0.207341715123281
"377","2 - 6 Unit Multi Family","60805",NA,230,-12.6247683683457,0.0422100551876137,0.154645157025806
"378","2 - 6 Unit Multi Family","60827","9",18,-12.2802606249222,0.044883257918552,0.149145701357466
"379","2 - 6 Unit Multi Family","60827",NA,395,-12.4705058769941,0.0436190723374336,0.157597728754668
"380","2 - 6 Unit Multi Family",NA,"1",1,-11.9772907299628,0.0476517786561265,0.168428458498024
"381","2 - 6 Unit Multi Family",NA,"11",1,-13.3019316164096,0.0465136855506047,0.177531508593253
"382","2 - 6 Unit Multi Family",NA,"2",1,-10.6687091732549,0.0413989197530864,0.140720679012346
"383","2 - 6 Unit Multi Family",NA,"20",5,-12.2521671875485,0.0446757898413161,0.160518588881499
"384","2 - 6 Unit Multi Family",NA,"23",1,-12.6695154234983,0.0429215311004785,0.1464995215311
"385","2 - 6 Unit Multi Family",NA,"24",5,-12.8537491105896,0.0441239778099896,0.158003741085947
"386","2 - 6 Unit Multi Family",NA,"26",3,-11.9772907299628,0.0478743236734443,0.172286242020352
"387","2 - 6 Unit Multi Family",NA,"27",7,-11.4924083626511,0.0451769376243045,0.156589771778454
"388","2 - 6 Unit Multi Family",NA,"28",5,-12.27948197256,0.0444610278538752,0.154750119171714
"389","2 - 6 Unit Multi Family",NA,"3",5,-11.6285288673877,0.0406830214380573,0.141650564893864
"390","2 - 6 Unit Multi Family",NA,"32",6,-10.3957713167397,0.0431570260565736,0.142352438168188
"391","2 - 6 Unit Multi Family",NA,"34",1,-11.710207285294,0.0425603136308806,0.153089264173703
"392","2 - 6 Unit Multi Family",NA,"35",1,-13.2983505990914,0.0446804657179819,0.174791720569211
"393","2 - 6 Unit Multi Family",NA,"37",1,-14.1823518156057,0.0532194489465154,0.211126094003241
"394","2 - 6 Unit Multi Family",NA,"4",2,-11.6285288673877,0.0424833596653687,0.147557108172986
"395","2 - 6 Unit Multi Family",NA,"40",1,-11.7173738052761,0.0439141914191419,0.14712101210121
"396","2 - 6 Unit Multi Family",NA,"41",1,-12.6548686896962,0.0438520090548953,0.154736842105263
"397","2 - 6 Unit Multi Family",NA,"43",2,-9.90715005116057,0.0431148569717928,0.138218479375259
"398","2 - 6 Unit Multi Family",NA,"44",4,-10.2493068418147,0.0428981751433637,0.139168432451707
"399","2 - 6 Unit Multi Family",NA,"45",1,-11.7131855588966,0.0408399339933993,0.142620462046205
"400","2 - 6 Unit Multi Family",NA,"47",1,-11.1059957529241,0.0452742382271468,0.153759002770083
"401","2 - 6 Unit Multi Family",NA,"49",2,-12.8615643462893,0.0452976337993323,0.162367631417835
"402","2 - 6 Unit Multi Family",NA,"5",3,-11.4654851702449,0.0405328422151547,0.132480379513633
"403","2 - 6 Unit Multi Family",NA,"6",1,-12.0085507140213,0.0426219119226638,0.152605800214823
"404","2 - 6 Unit Multi Family",NA,"7",3,-12.0558910611978,0.0451975795827078,0.164578596157971
"405","2 - 6 Unit Multi Family",NA,"8",1,-11.5445163324061,0.0423053960964409,0.14603214695752
"406","2 - 6 Unit Multi Family",NA,NA,31,-12.6679208178904,0.0450437786972971,0.169706112378265
"407","Single-Family & Residential Condominiums","0-0","1",1,-7.93433130072572,0.0436199505358615,0.141424567188788
"408","Single-Family & Residential Condominiums","0-0","10",10,-10.5280418633578,0.0452680748782328,0.167719076624337
"409","Single-Family & Residential Condominiums","0-0","11",22,-10.3974000805759,0.0502122872461296,0.186842732426277
"410","Single-Family & Residential Condominiums","0-0","12",7,-10.9227888950532,0.0498277999438498,0.195860346515715
"411","Single-Family & Residential Condominiums","0-0","13",6,-10.716220263772,0.0487364813784432,0.186703847843628
"412","Single-Family & Residential Condominiums","0-0","14",8,-11.8585157775904,0.0535413594876908,0.224073368618086
"413","Single-Family & Residential Condominiums","0-0","15",3,-12.0299890315841,0.0535239743210716,0.214685053109161
"414","Single-Family & Residential Condominiums","0-0","16",1,-9.94574124219355,0.0469947984395319,0.181136540962289
"415","Single-Family & Residential Condominiums","0-0","17",2,-9.697037115936,0.0462665446406756,0.169555813228661
"416","Single-Family & Residential Condominiums","0-0","18",8,-9.7872460525584,0.0435547467923515,0.155846534275763
"417","Single-Family & Residential Condominiums","0-0","19",62,-8.56464089104364,0.0393340155456307,0.128366302400858
"418","Single-Family & Residential Condominiums","0-0","2",22,-7.84784468599165,0.0423167622488198,0.129119088284095
"419","Single-Family & Residential Condominiums","0-0","20",18,-9.80173375003882,0.0497796019856881,0.188467695445491
"420","Single-Family & Residential Condominiums","0-0","21",4,-9.19760872854221,0.042670613177632,0.146277045403854
"421","Single-Family & Residential Condominiums","0-0","22",5,-10.2555241906699,0.0492815518409682,0.190912350688484
"422","Single-Family & Residential Condominiums","0-0","23",9,-10.1356123387986,0.0453847285153086,0.17253459469587
"423","Single-Family & Residential Condominiums","0-0","24",2,-10.2829992884716,0.0443412805933163,0.16838253305894
"424","Single-Family & Residential Condominiums","0-0","25",14,-8.74398969075067,0.0474825727886916,0.165531981748766
"425","Single-Family & Residential Condominiums","0-0","27",15,-8.6266365418117,0.0417623254820525,0.132628848216489
"426","Single-Family & Residential Condominiums","0-0","28",19,-9.82358557804797,0.0436700017519156,0.147027587644938
"427","Single-Family & Residential Condominiums","0-0","29",1,-10.0260664281596,0.0431901211556384,0.152246039142591
"428","Single-Family & Residential Condominiums","0-0","3",52,-9.30282309391017,0.0412058523535489,0.142051466512853
"429","Single-Family & Residential Condominiums","0-0","30",1,-11.1076703470687,0.04912094184802,0.197764537995005
"430","Single-Family & Residential Condominiums","0-0","31",5,-11.0074374017116,0.0504852417381354,0.199669354226956
"431","Single-Family & Residential Condominiums","0-0","32",22,-9.58183258397023,0.0457483982407701,0.158068820601961
"432","Single-Family & Residential Condominiums","0-0","34",27,-9.36816582823522,0.0429155285687703,0.147074203861092
"433","Single-Family & Residential Condominiums","0-0","35",1,-10.1937379079122,0.0481146496815287,0.187831455169035
"434","Single-Family & Residential Condominiums","0-0","36",1,-11.6898784929277,0.051589186012342,0.210292095210109
"435","Single-Family & Residential Condominiums","0-0","38",24,-10.3228230323257,0.0436814128916425,0.158786698343887
"436","Single-Family & Residential Condominiums","0-0","39",22,-10.3127828822122,0.0434062560439703,0.15797720023887
"437","Single-Family & Residential Condominiums","0-0","4",10,-8.83538288039721,0.0426310559959855,0.14390476055533
"438","Single-Family & Residential Condominiums","0-0","40",3,-10.4171439451463,0.0470682310017348,0.175835288752169
"439","Single-Family & Residential Condominiums","0-0","41",9,-9.53158780947618,0.0421601792465833,0.146873299363891
"440","Single-Family & Residential Condominiums","0-0","43",9,-7.84784468599165,0.0416044361085513,0.127522609862566
"441","Single-Family & Residential Condominiums","0-0","44",1,-7.94815066075475,0.0430016857720836,0.133527309507755
"442","Single-Family & Residential Condominiums","0-0","45",12,-10.1306367161624,0.044966727483917,0.160718417390506
"443","Single-Family & Residential Condominiums","0-0","47",1,-9.3738990442209,0.0440355956336023,0.152268628381585
"444","Single-Family & Residential Condominiums","0-0","49",27,-10.2892514770314,0.046533280360988,0.174383075223238
"445","Single-Family & Residential Condominiums","0-0","5",23,-8.17069100585256,0.0396924209229202,0.129124398958582
"446","Single-Family & Residential Condominiums","0-0","50",8,-10.0991054522372,0.0421470514544651,0.157332861900788
"447","Single-Family & Residential Condominiums","0-0","6",108,-9.4482459178686,0.0429285176088104,0.155402915436024
"448","Single-Family & Residential Condominiums","0-0","7",6,-10.3993686687434,0.0447542738896371,0.1688973374053
"449","Single-Family & Residential Condominiums","0-0","8",26,-9.64471284895827,0.0410961252034625,0.147592855216522
"450","Single-Family & Residential Condominiums","0-0","9",116,-9.69202149346922,0.0416133988716963,0.146023953728727
"451","Single-Family & Residential Condominiums","0-0",NA,2513,-10.3392890616174,0.0445420961351467,0.165732559235035
"452","Single-Family & Residential Condominiums","60004",NA,13255,-10.2339255114726,0.0437765234321248,0.160988208951592
"453","Single-Family & Residential Condominiums","60005",NA,6183,-10.1375395576934,0.0435836736867801,0.161931576017637
"454","Single-Family & Residential Condominiums","60007",NA,8525,-10.5942635434045,0.0442176692676412,0.169293160896339
"455","Single-Family & Residential Condominiums","60008",NA,5418,-10.7342061098095,0.0459972470474136,0.174060542074274
"456","Single-Family & Residential Condominiums","60010",NA,6588,-10.0066565881932,0.0433666919893881,0.156868381445636
"457","Single-Family & Residential Condominiums","60015",NA,1,-8.877317465513,0.0431217308606752,0.149553019495958
"458","Single-Family & Residential Condominiums","60016",NA,11385,-10.6251443011961,0.0455747987095181,0.172805828163476
"459","Single-Family & Residential Condominiums","60018",NA,6873,-11.4111753206537,0.047187856338987,0.187918954223192
"460","Single-Family & Residential Condominiums","60022",NA,3008,-8.10038988912714,0.0406394005516884,0.126018778293704
"461","Single-Family & Residential Condominiums","60025",NA,10690,-9.39120680408283,0.0435262032749105,0.155010120890981
"462","Single-Family & Residential Condominiums","60026",NA,3260,-9.45699620191261,0.0415855279827281,0.142521577911465
"463","Single-Family & Residential Condominiums","60029",NA,172,-9.57076125890246,0.0462497441146366,0.163508700102354
"464","Single-Family & Residential Condominiums","60043",NA,835,-9.27650495475375,0.0386713344497258,0.133933312237514
"465","Single-Family & Residential Condominiums","60053",NA,7818,-10.5167975702626,0.0445943380659897,0.166170426896974
"466","Single-Family & Residential Condominiums","60056",NA,13261,-10.2685516116201,0.0456154321911581,0.17012578401625
"467","Single-Family & Residential Condominiums","60062",NA,11686,-9.10246974144385,0.0413219914739005,0.14096412243796
"468","Single-Family & Residential Condominiums","60067",NA,10570,-10.137454375983,0.0451740717214699,0.164695926411699
"469","Single-Family & Residential Condominiums","60068",NA,12105,-10.2562216502524,0.0439692946242457,0.16066749141741
"470","Single-Family & Residential Condominiums","60070",NA,2388,-10.6306186692991,0.0451017606457021,0.172097178159736
"471","Single-Family & Residential Condominiums","60074",NA,5653,-10.4851881837208,0.0455456995966992,0.172529802364673
"472","Single-Family & Residential Condominiums","60076",NA,9975,-10.4090384507045,0.043713613731252,0.158607732531423
"473","Single-Family & Residential Condominiums","60077",NA,5456,-10.5167975702626,0.0441978816026706,0.166614171272923
"474","Single-Family & Residential Condominiums","60089",NA,3060,-9.7690899882107,0.0442475098774607,0.16066277122741
"475","Single-Family & Residential Condominiums","60090",NA,5393,-10.6382441329436,0.047603779310727,0.181424673563755
"476","Single-Family & Residential Condominiums","60091",NA,8610,-8.55687047577936,0.0410483624821103,0.134295485554217
"477","Single-Family & Residential Condominiums","60093",NA,5892,-8.1934662339583,0.039649730801054,0.1292395925221
"478","Single-Family & Residential Condominiums","60103",NA,3958,-10.2170728613882,0.0446362823525666,0.169464688177413
"479","Single-Family & Residential Condominiums","60104",NA,5167,-11.2041837574358,0.0458922244701256,0.177418215088259
"480","Single-Family & Residential Condominiums","60107",NA,11745,-10.8182166029262,0.0469735397822673,0.183258102083464
"481","Single-Family & Residential Condominiums","60118",NA,3,-10.0066565881932,0.0424403005844698,0.15462844419705
"482","Single-Family & Residential Condominiums","60120",NA,5739,-10.9561747772008,0.0464128159848842,0.179571110154972
"483","Single-Family & Residential Condominiums","60126",NA,133,-10.4225497815381,0.0467878481012658,0.177550379746835
"484","Single-Family & Residential Condominiums","60130",NA,1916,-9.38187235737757,0.0419974722695149,0.144780371566737
"485","Single-Family & Residential Condominiums","60131",NA,5291,-11.449662332925,0.0457779972091805,0.183602652490978
"486","Single-Family & Residential Condominiums","60133",NA,4506,-11.1916808763552,0.0478229669832671,0.186803102349065
"487","Single-Family & Residential Condominiums","60153",NA,5218,-10.106638061329,0.0440922909068971,0.163913322952934
"488","Single-Family & Residential Condominiums","60154",NA,6617,-9.76818483889948,0.0433416395136388,0.158530242081523
"489","Single-Family & Residential Condominiums","60155",NA,2298,-9.89078194992075,0.0450785729182247,0.163544252436144
"490","Single-Family & Residential Condominiums","60160",NA,3347,-11.0125088112769,0.0479649235581228,0.190450640117083
"491","Single-Family & Residential Condominiums","60162",NA,2205,-10.8664379171042,0.0457157695759581,0.171577910877902
"492","Single-Family & Residential Condominiums","60163",NA,1706,-10.8664379171042,0.0432865101472344,0.174033426183844
"493","Single-Family & Residential Condominiums","60164",NA,5299,-11.4069541835772,0.0479813983294857,0.1941289668208
"494","Single-Family & Residential Condominiums","60165",NA,593,-12.1489238603599,0.0498445841918879,0.210335380466563
"495","Single-Family & Residential Condominiums","60169",NA,7537,-10.4478394048157,0.0465259351484701,0.175500040733324
"496","Single-Family & Residential Condominiums","60171",NA,2118,-11.7074089550585,0.0465964417869087,0.191167468946295
"497","Single-Family & Residential Condominiums","60172",NA,1070,-11.3718188448697,0.0424079482061577,0.165612329418037
"498","Single-Family & Residential Condominiums","60173",NA,1381,-10.0438786800622,0.0462823794291984,0.167244291606467
"499","Single-Family & Residential Condominiums","60176",NA,2181,-11.326728967814,0.049789432036482,0.199211427345811
"500","Single-Family & Residential Condominiums","60192",NA,5234,-9.78153814022198,0.0450160487811931,0.165048057090559
"501","Single-Family & Residential Condominiums","60193",NA,9428,-10.4707736191408,0.0447955285021978,0.167393866792494
"502","Single-Family & Residential Condominiums","60194",NA,4119,-10.4707736191408,0.0458099064252513,0.174869330590903
"503","Single-Family & Residential Condominiums","60195",NA,320,-10.6459429081826,0.0451058806932211,0.170878489847233
"504","Single-Family & Residential Condominiums","60201",NA,6558,-8.9185364030207,0.0420611866889187,0.143909859395121
"505","Single-Family & Residential Condominiums","60202",NA,4473,-10.3154756944358,0.0428033221024124,0.153003473402809
"506","Single-Family & Residential Condominiums","60203",NA,1511,-8.97222330669825,0.0411635428739542,0.13817218628337
"507","Single-Family & Residential Condominiums","60301",NA,17,-8.13478270890342,0.0415734720416125,0.141847420892935
"508","Single-Family & Residential Condominiums","60302",NA,5859,-8.25882710256769,0.0413813205529025,0.134969835686236
"509","Single-Family & Residential Condominiums","60304",NA,4376,-9.21134183176568,0.0414555231732075,0.140530800825477
"510","Single-Family & Residential Condominiums","60305",NA,2847,-8.90055678667274,0.0421356875949501,0.142642583612582
"511","Single-Family & Residential Condominiums","60402",NA,11966,-11.1475427855841,0.047388232830129,0.186727547037837
"512","Single-Family & Residential Condominiums","60406",NA,4397,-11.2816534707286,0.0486466972640593,0.193653118396775
"513","Single-Family & Residential Condominiums","60409",NA,9001,-10.0920734634514,0.0452923092156643,0.167251298803721
"514","Single-Family & Residential Condominiums","60411",NA,14893,-10.7239341469382,0.046647260943359,0.179509684041656
"515","Single-Family & Residential Condominiums","60415",NA,2017,-11.0086153670594,0.0487389916862577,0.191355725159546
"516","Single-Family & Residential Condominiums","60418",NA,2193,-10.7547591094445,0.0456104862911177,0.170657030086613
"517","Single-Family & Residential Condominiums","60419",NA,7454,-9.91226724654939,0.0435077609895378,0.159259523837295
"518","Single-Family & Residential Condominiums","60422",NA,3380,-9.15962819734618,0.0401521314761809,0.139182801519816
"519","Single-Family & Residential Condominiums","60423",NA,7,-9.9365721996766,0.042093715223942,0.163142477883661
"520","Single-Family & Residential Condominiums","60425",NA,2610,-11.4323661253882,0.0446501230130903,0.173887593953742
"521","Single-Family & Residential Condominiums","60426",NA,8972,-10.5099920275907,0.0468472465034706,0.175892525458129
"522","Single-Family & Residential Condominiums","60428",NA,4832,-9.82776502644587,0.0430324799935101,0.155527055758537
"523","Single-Family & Residential Condominiums","60429",NA,4844,-9.89742871614626,0.0436340632171484,0.160355648721831
"524","Single-Family & Residential Condominiums","60430",NA,6301,-10.0428011377311,0.0433683277613274,0.159727047797585
"525","Single-Family & Residential Condominiums","60438",NA,9166,-10.2587087590218,0.0449359533685118,0.167618190684877
"526","Single-Family & Residential Condominiums","60439",NA,7318,-10.7675883090271,0.0453379389822994,0.173591828629141
"527","Single-Family & Residential Condominiums","60443",NA,5746,-9.728050172289,0.0411918157805524,0.148298715918143
"528","Single-Family & Residential Condominiums","60445",NA,4425,-11.2268116655179,0.0478715956235931,0.190115281697608
"529","Single-Family & Residential Condominiums","60449",NA,10,-11.0314456077593,0.0424829359513792,0.166630201028518
"530","Single-Family & Residential Condominiums","60452",NA,7614,-10.8945347147678,0.0467670586932853,0.180412759157659
"531","Single-Family & Residential Condominiums","60453",NA,16530,-10.6436417185956,0.0457885493904435,0.175248202242196
"532","Single-Family & Residential Condominiums","60455",NA,3313,-11.2492316465058,0.0467841914303498,0.188213636178594
"533","Single-Family & Residential Condominiums","60456",NA,1546,-10.8205881330826,0.0482503740648379,0.186556608478803
"534","Single-Family & Residential Condominiums","60457",NA,3405,-11.3033096765066,0.0459908048339484,0.18211765952746
"535","Single-Family & Residential Condominiums","60458",NA,1943,-11.2719409815313,0.0487234988194512,0.193150207999304
"536","Single-Family & Residential Condominiums","60459",NA,8440,-10.9462703844018,0.0476405383238625,0.186043441208685
"537","Single-Family & Residential Condominiums","60461",NA,1780,-9.64709995630137,0.0416086032983116,0.148297668340574
"538","Single-Family & Residential Condominiums","60462",NA,10799,-10.3085609214851,0.0446121026705152,0.165447621587066
"539","Single-Family & Residential Condominiums","60463",NA,4338,-10.3216957378444,0.0441606049403035,0.164974768063653
"540","Single-Family & Residential Condominiums","60464",NA,3274,-10.0687427940162,0.0434964519344336,0.160245085505917
"541","Single-Family & Residential Condominiums","60465",NA,3949,-11.3419995068247,0.0464744696752947,0.184301408044513
"542","Single-Family & Residential Condominiums","60466",NA,4845,-9.84729317600429,0.042307876448707,0.152091026409054
"543","Single-Family & Residential Condominiums","60467",NA,7207,-9.95925023914862,0.0429490763680686,0.157357616123522
"544","Single-Family & Residential Condominiums","60469",NA,1763,-11.0185987551913,0.0498710127674827,0.196277766529153
"545","Single-Family & Residential Condominiums","60471",NA,3612,-10.1990193432878,0.0420240455953197,0.156234935021347
"546","Single-Family & Residential Condominiums","60472",NA,1903,-10.8564053721602,0.0455361260252334,0.179842964714312
"547","Single-Family & Residential Condominiums","60473",NA,7771,-9.17241700607623,0.0416861816309525,0.144205534006134
"548","Single-Family & Residential Condominiums","60475",NA,1924,-11.4970410302296,0.0443936612374112,0.177478357771161
"549","Single-Family & Residential Condominiums","60476",NA,908,-10.8835648851283,0.0456224426519683,0.178259380470018
"550","Single-Family & Residential Condominiums","60477",NA,10003,-10.4790753297437,0.0447356723160949,0.168853482271491
"551","Single-Family & Residential Condominiums","60478",NA,5160,-9.89742871614626,0.0419056383960725,0.14946677612682
"552","Single-Family & Residential Condominiums","60480",NA,1958,-10.6628457449057,0.0466090195398598,0.178573963547272
"553","Single-Family & Residential Condominiums","60482",NA,2519,-11.0086153670594,0.0479486341472094,0.187063415417272
"554","Single-Family & Residential Condominiums","60487",NA,5523,-10.3392890616174,0.0446522806995792,0.169213548566311
"555","Single-Family & Residential Condominiums","60491",NA,1,-10.6290279120244,0.0439629047469349,0.167748506758881
"556","Single-Family & Residential Condominiums","60501",NA,1857,-11.7873661916724,0.0498727202162537,0.205420258916557
"557","Single-Family & Residential Condominiums","60513",NA,6374,-10.0520700083561,0.0431547714976599,0.157681424853872
"558","Single-Family & Residential Condominiums","60521",NA,747,-9.04272514764429,0.0431021833402864,0.146377345343215
"559","Single-Family & Residential Condominiums","60523",NA,9,-10.4225497815381,0.0459464400156062,0.171915853433732
"560","Single-Family & Residential Condominiums","60525",NA,8058,-9.71957070979942,0.0437817131553122,0.15600841416035
"561","Single-Family & Residential Condominiums","60526",NA,3842,-9.85161682292966,0.0437269594718467,0.154103121818893
"562","Single-Family & Residential Condominiums","60527",NA,1200,-10.3161876082129,0.0439149262165239,0.164219923042052
"563","Single-Family & Residential Condominiums","60534",NA,2428,-10.6904012478162,0.0465746422208614,0.178333478872964
"564","Single-Family & Residential Condominiums","60546",NA,4920,-9.61374352654374,0.0450526508523907,0.163948146854526
"565","Single-Family & Residential Condominiums","60558",NA,4480,-8.3372458763574,0.0403062569266387,0.129887530721216
"566","Single-Family & Residential Condominiums","60603","34",1,-9.36816582823522,0.0450921288014311,0.155257602862254
"567","Single-Family & Residential Condominiums","60605","3",659,-8.15654445115376,0.0391215811531331,0.124749873310951
"568","Single-Family & Residential Condominiums","60606","42",4,-8.6266365418117,0.0400314086891104,0.124834681211209
"569","Single-Family & Residential Condominiums","60607","11",89,-8.74398969075067,0.0436491794588199,0.143672362187383
"570","Single-Family & Residential Condominiums","60607","21",1,-9.42815670360521,0.0469797785267212,0.162246509388541
"571","Single-Family & Residential Condominiums","60607","25",389,-8.6266365418117,0.0436178906586601,0.142541097794015
"572","Single-Family & Residential Condominiums","60607","27",73,-8.6266365418117,0.0416118381814416,0.133336035005394
"573","Single-Family & Residential Condominiums","60607","28",443,-8.74398969075067,0.041029190921306,0.133296004269066
"574","Single-Family & Residential Condominiums","60607","34",1,-8.75599971998472,0.0407192276749799,0.130675784392599
"575","Single-Family & Residential Condominiums","60608","11",1882,-10.3974000805759,0.0494701250719325,0.184922288137725
"576","Single-Family & Residential Condominiums","60608","12",843,-10.9227888950532,0.0493642650721828,0.184612800391558
"577","Single-Family & Residential Condominiums","60608","19",3,-8.67410314492746,0.0398475989403674,0.129516454564444
"578","Single-Family & Residential Condominiums","60608","24",87,-11.6558037522225,0.0483861294821952,0.184106386786709
"579","Single-Family & Residential Condominiums","60608","25",1197,-10.5173461691729,0.0485194992509403,0.181762677516707
"580","Single-Family & Residential Condominiums","60608","28",94,-10.2829992884716,0.0463875042530509,0.175387337123904
"581","Single-Family & Residential Condominiums","60609","11",1807,-10.3974000805759,0.0452479047507315,0.165248606101483
"582","Single-Family & Residential Condominiums","60609","12",752,-10.9227888950532,0.0492150659125223,0.191704844736262
"583","Single-Family & Residential Condominiums","60609","14",4,-11.3514353020128,0.0469878048780488,0.181641463414634
"584","Single-Family & Residential Condominiums","60609","15",621,-12.0299890315841,0.0522590455342754,0.217291096842745
"585","Single-Family & Residential Condominiums","60609","16",578,-10.7799097112213,0.051996116858736,0.213548284789847
"586","Single-Family & Residential Condominiums","60609","20",997,-10.7799097112213,0.0489797950424094,0.192934705078548
"587","Single-Family & Residential Condominiums","60609","21",1,-9.47392960626669,0.0398967495219885,0.126869980879541
"588","Single-Family & Residential Condominiums","60609","3",431,-9.09685199993681,0.0450231963208031,0.157468361538487
"589","Single-Family & Residential Condominiums","60610","2",376,-7.84784468599165,0.0422916707472707,0.131264855384531
"590","Single-Family & Residential Condominiums","60610","27",443,-8.20225113223954,0.0423259169506623,0.132649350315529
"591","Single-Family & Residential Condominiums","60610","43",86,-7.84784468599165,0.039763783269962,0.120180133079848
"592","Single-Family & Residential Condominiums","60611","2",36,-7.84784468599165,0.0422761186435488,0.134027350317231
"593","Single-Family & Residential Condominiums","60611","42",88,-7.88984975890821,0.0407568772373382,0.123742957073885
"594","Single-Family & Residential Condominiums","60612","1",105,-9.19392669012087,0.0470574055046782,0.175110763088945
"595","Single-Family & Residential Condominiums","60612","19",2,-8.67410314492746,0.0402508741882538,0.135023314065511
"596","Single-Family & Residential Condominiums","60612","24",36,-9.82358557804797,0.0427877819409335,0.156461115300314
"597","Single-Family & Residential Condominiums","60612","26",356,-9.19392669012087,0.046157236299326,0.16809399447333
"598","Single-Family & Residential Condominiums","60612","27",629,-9.82358557804797,0.0443956890554998,0.155892265999978
"599","Single-Family & Residential Condominiums","60612","28",456,-9.82358557804797,0.0431216947838788,0.155567812156908
"600","Single-Family & Residential Condominiums","60613","29",1,-11.0326532861174,0.0437348993288591,0.162826019617966
"601","Single-Family & Residential Condominiums","60613","44",322,-8.19944547345179,0.0433982768986022,0.136829700085302
"602","Single-Family & Residential Condominiums","60613","46",202,-9.26399842631439,0.043952065241719,0.149998437274958
"603","Single-Family & Residential Condominiums","60613","47",1109,-8.23946985421788,0.0435553004574086,0.140629326611995
"604","Single-Family & Residential Condominiums","60614","2",535,-7.92572004092846,0.042102346929523,0.132757367904935
"605","Single-Family & Residential Condominiums","60614","32",933,-8.23946985421788,0.0422634827886977,0.136719552689028
"606","Single-Family & Residential Condominiums","60614","36",1,-11.6898784929277,0.051589186012342,0.210292095210109
"607","Single-Family & Residential Condominiums","60614","43",2965,-7.92572004092846,0.0418625670120048,0.12888362940373
"608","Single-Family & Residential Condominiums","60615","3",133,-9.30282309391017,0.043106317963762,0.143168431709727
"609","Single-Family & Residential Condominiums","60615","4",905,-8.17069100585256,0.0407166032056811,0.129981044658195
"610","Single-Family & Residential Condominiums","60615","5",679,-8.17069100585256,0.040145784295495,0.133585620666187
"611","Single-Family & Residential Condominiums","60616","11",1473,-10.6415452931277,0.0498354881820287,0.189754003056109
"612","Single-Family & Residential Condominiums","60616","25",411,-10.6415452931277,0.0568789820625864,0.225109137030414
"613","Single-Family & Residential Condominiums","60616","3",533,-8.15654445115376,0.0392213918950578,0.124927809446646
"614","Single-Family & Residential Condominiums","60616","4",408,-9.09685199993681,0.0406113340276391,0.136475567873238
"615","Single-Family & Residential Condominiums","60617","10",7423,-10.5280418633578,0.0467273673423477,0.177263093163248
"616","Single-Family & Residential Condominiums","60617","7",6519,-10.2317188195518,0.0448119252216371,0.163764289546946
"617","Single-Family & Residential Condominiums","60617","8",4148,-9.64471284895827,0.043140879020694,0.152280234523062
"618","Single-Family & Residential Condominiums","60618","30",576,-10.6386804792731,0.0482366547490663,0.184160168813903
"619","Single-Family & Residential Condominiums","60618","32",771,-8.91792701470621,0.0436341275714701,0.149890693537712
"620","Single-Family & Residential Condominiums","60618","33",2419,-10.1937379079122,0.0474500873488912,0.173886663890329
"621","Single-Family & Residential Condominiums","60618","35",1324,-10.6386804792731,0.0481021469567681,0.183784726336846
"622","Single-Family & Residential Condominiums","60618","39",161,-10.1937379079122,0.0487432847275518,0.180493476592479
"623","Single-Family & Residential Condominiums","60618","45",315,-10.6386804792731,0.0446683488612709,0.152705842044701
"624","Single-Family & Residential Condominiums","60618","47",1675,-9.02106247721275,0.0437108963729189,0.1461740541261
"625","Single-Family & Residential Condominiums","60619","5",338,-9.23561306592489,0.0410051944425067,0.143555460675423
"626","Single-Family & Residential Condominiums","60619","6",4094,-9.60684057121702,0.0434158225898824,0.155265515222837
"627","Single-Family & Residential Condominiums","60619","7",44,-9.23561306592489,0.0423053960964409,0.14603214695752
"628","Single-Family & Residential Condominiums","60619","8",4826,-9.64471284895827,0.0422730802822954,0.151301766196016
"629","Single-Family & Residential Condominiums","60619","9",2752,-9.4482459178686,0.041458599595802,0.142690467229208
"630","Single-Family & Residential Condominiums","60620","17",2473,-9.47392960626669,0.0441604430636638,0.155738856346008
"631","Single-Family & Residential Condominiums","60620","18",1225,-9.60682817931359,0.0442723256889367,0.158109932239777
"632","Single-Family & Residential Condominiums","60620","21",9289,-9.42815670360521,0.0437055623797912,0.150937371132902
"633","Single-Family & Residential Condominiums","60620","6",279,-8.66401046527573,0.0459910184085071,0.161884335249638
"634","Single-Family & Residential Condominiums","60621","16",548,-9.79638114590836,0.0486450295451027,0.185824883638628
"635","Single-Family & Residential Condominiums","60621","17",279,-9.99900372098262,0.0511917989417989,0.196283068783069
"636","Single-Family & Residential Condominiums","60621","20",452,-10.4655672861058,0.0466831656791754,0.1806325194494
"637","Single-Family & Residential Condominiums","60621","3",94,-10.4655672861058,0.0446173343127009,0.177772784098752
"638","Single-Family & Residential Condominiums","60621","41",1,-8.40760004879092,0.0391932809773124,0.126485165794066
"639","Single-Family & Residential Condominiums","60621","6",1386,-9.99900372098262,0.047772193024172,0.177589672766411
"640","Single-Family & Residential Condominiums","60622","1",961,-9.19392669012087,0.0448798847965836,0.150090711093841
"641","Single-Family & Residential Condominiums","60622","2",459,-8.53496733860394,0.0427148186764656,0.139377633130326
"642","Single-Family & Residential Condominiums","60622","26",288,-9.58183258397023,0.0476938811109344,0.176293527765097
"643","Single-Family & Residential Condominiums","60622","27",5,-9.19392669012087,0.0454227706729905,0.159581351319718
"644","Single-Family & Residential Condominiums","60622","32",501,-8.31661705339177,0.0420170293708377,0.134314434460669
"645","Single-Family & Residential Condominiums","60622","47",1,-9.34274559844322,0.0443505712567649,0.156600120264582
"646","Single-Family & Residential Condominiums","60623","12",420,-11.6558037522225,0.0507156571223184,0.205596254745395
"647","Single-Family & Residential Condominiums","60623","22",2293,-11.6558037522225,0.0496775555396779,0.204971002323183
"648","Single-Family & Residential Condominiums","60623","24",1141,-10.2829992884716,0.0455744905717416,0.170971472262315
"649","Single-Family & Residential Condominiums","60624","13",1,-11.2968281887453,0.0491829307568438,0.192223510466989
"650","Single-Family & Residential Condominiums","60624","19",1,-8.56464089104364,0.0385725221595488,0.123364222401289
"651","Single-Family & Residential Condominiums","60624","24",453,-9.82358557804797,0.0443559981471712,0.160595058828942
"652","Single-Family & Residential Condominiums","60624","27",281,-10.4229113939666,0.0484347235263912,0.180548983470692
"653","Single-Family & Residential Condominiums","60624","28",547,-9.82358557804797,0.0454672969383574,0.168220039746267
"654","Single-Family & Residential Condominiums","60624","37",158,-10.4229113939666,0.0486100036019285,0.181445492755619
"655","Single-Family & Residential Condominiums","60625","33",925,-10.7651487314059,0.0472847683541706,0.173134400450829
"656","Single-Family & Residential Condominiums","60625","35",488,-10.7651487314059,0.0503786496565771,0.200567328094697
"657","Single-Family & Residential Condominiums","60625","39",852,-10.5042432570988,0.0432644974388742,0.168339088888693
"658","Single-Family & Residential Condominiums","60625","40",1530,-9.3738990442209,0.04447190663622,0.158083123819096
"659","Single-Family & Residential Condominiums","60625","47",607,-9.02106247721275,0.0425147208042158,0.145756280774909
"660","Single-Family & Residential Condominiums","60626","40",91,-10.2892514770314,0.0487202498356345,0.186134779750164
"661","Single-Family & Residential Condominiums","60626","49",1112,-10.2892514770314,0.0469605677867212,0.17372274333244
"662","Single-Family & Residential Condominiums","60626","50",19,-9.8501245313973,0.0506841322928279,0.193646228167967
"663","Single-Family & Residential Condominiums","60628","21",1228,-9.42815670360521,0.0419120359273466,0.151898850673155
"664","Single-Family & Residential Condominiums","60628","34",6992,-9.36816582823522,0.04359017530914,0.151803869732787
"665","Single-Family & Residential Condominiums","60628","8",840,-9.05924501023508,0.0431098717233687,0.146566648075851
"666","Single-Family & Residential Condominiums","60628","9",9049,-9.60954625201741,0.0427756234628157,0.152068541706993
"667","Single-Family & Residential Condominiums","60629","13",6997,-11.2968281887453,0.0489711070930377,0.193968944857623
"668","Single-Family & Residential Condominiums","60629","14",691,-11.3514353020128,0.052468262957021,0.213653873407433
"669","Single-Family & Residential Condominiums","60629","15",244,-11.1985749828161,0.0470649978041282,0.193700483091787
"670","Single-Family & Residential Condominiums","60629","16",2543,-11.1985749828161,0.0510296610360928,0.20378901171413
"671","Single-Family & Residential Condominiums","60629","17",2214,-11.1985749828161,0.0479527083052975,0.18385839053031
"672","Single-Family & Residential Condominiums","60629","18",1262,-10.1029146129704,0.0454739867302989,0.169502868370529
"673","Single-Family & Residential Condominiums","60629","23",4487,-11.2968281887453,0.0510156307643198,0.207951451400435
"674","Single-Family & Residential Condominiums","60630","35",3,-10.7651487314059,0.0505283018867924,0.205100145137881
"675","Single-Family & Residential Condominiums","60630","38",1524,-10.6895542411169,0.0442145596514655,0.171175145301069
"676","Single-Family & Residential Condominiums","60630","39",2698,-10.5023623583486,0.0444683974801002,0.16831957501786
"677","Single-Family & Residential Condominiums","60630","45",5548,-9.90245733644372,0.0441795096722371,0.16269110979125
"678","Single-Family & Residential Condominiums","60631","41",8109,-9.53158780947618,0.0419605637941312,0.146908144249568
"679","Single-Family & Residential Condominiums","60631",NA,97,-10.2562216502524,0.0445833988985051,0.163371361132966
"680","Single-Family & Residential Condominiums","60632","12",1701,-10.9227888950532,0.0522227238089672,0.212859522169273
"681","Single-Family & Residential Condominiums","60632","13",60,-11.2968281887453,0.0493107411310676,0.19151703976102
"682","Single-Family & Residential Condominiums","60632","14",4781,-11.3514353020128,0.0496242768288582,0.199427273347157
"683","Single-Family & Residential Condominiums","60632","15",943,-11.646997390831,0.0511377475616782,0.208214945359596
"684","Single-Family & Residential Condominiums","60632","16",19,-11.3514353020128,0.05354332247557,0.21062671009772
"685","Single-Family & Residential Condominiums","60632","18",1,-9.12376965406371,0.0399255162241888,0.135853982300885
"686","Single-Family & Residential Condominiums","60632","20",1,-11.509651121998,0.0507196796338673,0.202425629290618
"687","Single-Family & Residential Condominiums","60632","22",235,-10.2555241906699,0.0479387417218543,0.181837748344371
"688","Single-Family & Residential Condominiums","60632","23",1675,-11.2968281887453,0.0496753177030062,0.202803686472994
"689","Single-Family & Residential Condominiums","60633","10",2413,-10.1930881451061,0.0437679681924913,0.162014772948999
"690","Single-Family & Residential Condominiums","60633",NA,1051,-10.2138256238512,0.0463378378378378,0.174403055229142
"691","Single-Family & Residential Condominiums","60634","29",1036,-10.3663276820664,0.0462972202920441,0.178085044640645
"692","Single-Family & Residential Condominiums","60634","30",1622,-11.0326532861174,0.0473357965539742,0.189167207814985
"693","Single-Family & Residential Condominiums","60634","31",106,-11.0326532861174,0.047608195542775,0.193222861250899
"694","Single-Family & Residential Condominiums","60634","36",4181,-10.6895542411169,0.0460541993601286,0.175785920655042
"695","Single-Family & Residential Condominiums","60634","38",9729,-10.3663276820664,0.0458612276636696,0.172988960197957
"696","Single-Family & Residential Condominiums","60636","15",1521,-10.6561208856622,0.0466699255488774,0.176437085473085
"697","Single-Family & Residential Condominiums","60636","16",2181,-10.1224478957736,0.0444815683453011,0.160850808474435
"698","Single-Family & Residential Condominiums","60636","17",2619,-10.1224478957736,0.0455434539359207,0.165733099818512
"699","Single-Family & Residential Condominiums","60636","18",315,-10.1224478957736,0.042296875,0.152725
"700","Single-Family & Residential Condominiums","60636","6",365,-9.99900372098262,0.045271644249853,0.152571914096808
"701","Single-Family & Residential Condominiums","60637","20",907,-9.80173375003882,0.0439975167326489,0.155879396385434
"702","Single-Family & Residential Condominiums","60637","5",715,-8.17069100585256,0.0387461657922316,0.121271796098011
"703","Single-Family & Residential Condominiums","60637","6",331,-9.80173375003882,0.0478253366791292,0.177035647729254
"704","Single-Family & Residential Condominiums","60638","13",6097,-10.1356123387986,0.0459909119794019,0.167980479609213
"705","Single-Family & Residential Condominiums","60638","14",2287,-10.1356123387986,0.0438734910622518,0.170489204669858
"706","Single-Family & Residential Condominiums","60638","22",1460,-11.2055528161781,0.0502773287629995,0.197331580615611
"707","Single-Family & Residential Condominiums","60638","23",5085,-10.1356123387986,0.0437837960714416,0.162296958248524
"708","Single-Family & Residential Condominiums","60638",NA,1244,-11.6300481190221,0.0482425710983337,0.193563510670032
"709","Single-Family & Residential Condominiums","60639","26",163,-11.1901128830406,0.0488938317852798,0.196360851563529
"710","Single-Family & Residential Condominiums","60639","29",510,-10.4064096200401,0.0465419351904359,0.175596984628892
"711","Single-Family & Residential Condominiums","60639","30",1492,-11.1076703470687,0.0501782473594553,0.197601205342853
"712","Single-Family & Residential Condominiums","60639","31",1345,-11.3224422025693,0.048974436361198,0.198113593253044
"713","Single-Family & Residential Condominiums","60639","35",640,-10.9362587172128,0.0486952711985241,0.192545408519534
"714","Single-Family & Residential Condominiums","60639","36",2157,-11.4279693089641,0.0499646383482937,0.202226340624704
"715","Single-Family & Residential Condominiums","60639","37",783,-10.4064096200401,0.0446766585633287,0.167820506042385
"716","Single-Family & Residential Condominiums","60639","45",1,-9.37054844711728,0.0426205641492266,0.142520473157416
"717","Single-Family & Residential Condominiums","60640","40",463,-9.3738990442209,0.0438671696917203,0.153894612177689
"718","Single-Family & Residential Condominiums","60640","46",160,-9.34274559844322,0.0457260953478359,0.164700754503602
"719","Single-Family & Residential Condominiums","60640","47",511,-9.34274559844322,0.044905649235771,0.155570416539759
"720","Single-Family & Residential Condominiums","60640","48",353,-8.89258759760849,0.0443667044854234,0.152355358159947
"721","Single-Family & Residential Condominiums","60641","30",1966,-11.0074374017116,0.0486153856251636,0.186995570382286
"722","Single-Family & Residential Condominiums","60641","31",2732,-11.1130675504067,0.0487634922932018,0.195674804658666
"723","Single-Family & Residential Condominiums","60641","35",1,-10.1937379079122,0.0482052259118127,0.184770821992379
"724","Single-Family & Residential Condominiums","60641","36",372,-10.6895542411169,0.048168721811143,0.185638626740986
"725","Single-Family & Residential Condominiums","60641","38",894,-10.4690568678472,0.0440188014825486,0.162501465475188
"726","Single-Family & Residential Condominiums","60641","39",306,-9.37054844711728,0.0430140774362672,0.157804853561918
"727","Single-Family & Residential Condominiums","60641","45",2219,-9.66497435089279,0.044715596196502,0.161605323431859
"728","Single-Family & Residential Condominiums","60642","1",122,-9.19392669012087,0.0456628799120039,0.157289527669298
"729","Single-Family & Residential Condominiums","60642","2",57,-9.19392669012087,0.04639796340144,0.160234690294809
"730","Single-Family & Residential Condominiums","60642","27",381,-9.19392669012087,0.0431067015302882,0.138790699767261
"731","Single-Family & Residential Condominiums","60642","32",2,-8.31661705339177,0.0425860445205479,0.141265410958904
"732","Single-Family & Residential Condominiums","60643","19",6650,-8.67410314492746,0.0398018514088526,0.13090257716987
"733","Single-Family & Residential Condominiums","60643","21",931,-9.19760872854221,0.044090989780736,0.152289279255493
"734","Single-Family & Residential Condominiums","60643","34",8086,-9.33033293446221,0.0426148200215068,0.146235989806788
"735","Single-Family & Residential Condominiums","60643",NA,1,-10.1154422604552,0.0436598837209302,0.149716569767442
"736","Single-Family & Residential Condominiums","60644","24",22,-9.82358557804797,0.0423037619529326,0.151860931985643
"737","Single-Family & Residential Condominiums","60644","28",668,-10.0260664281596,0.0446090105517567,0.166115581230778
"738","Single-Family & Residential Condominiums","60644","29",1564,-10.0260664281596,0.0441008667242948,0.160948170837419
"739","Single-Family & Residential Condominiums","60644","37",826,-10.0260664281596,0.0451191665764222,0.164110355205319
"740","Single-Family & Residential Condominiums","60645","49",310,-9.91388405978078,0.0475136147008186,0.172349961815
"741","Single-Family & Residential Condominiums","60645","50",4043,-9.86663801553616,0.0450967248169187,0.165752200983008
"742","Single-Family & Residential Condominiums","60646","39",4495,-9.9733089444433,0.0427085288081955,0.151479632848915
"743","Single-Family & Residential Condominiums","60646","41",2266,-8.51324979395656,0.0400946267605501,0.130744784886224
"744","Single-Family & Residential Condominiums","60646","45",1147,-10.123894951757,0.0437674129798359,0.163889715775711
"745","Single-Family & Residential Condominiums","60646",NA,1,-10.0076385993088,0.0421296583850932,0.150551242236025
"746","Single-Family & Residential Condominiums","60647","1",1445,-9.58183258397023,0.045999199384375,0.162179750495266
"747","Single-Family & Residential Condominiums","60647","2",11,-8.53496733860394,0.0425038726975971,0.132196771759824
"748","Single-Family & Residential Condominiums","60647","26",762,-10.9362587172128,0.0487133220957841,0.189085421996689
"749","Single-Family & Residential Condominiums","60647","30",5,-10.6386804792731,0.0491158614792646,0.190003420265071
"750","Single-Family & Residential Condominiums","60647","31",232,-10.6386804792731,0.0480084275811373,0.187664044501337
"751","Single-Family & Residential Condominiums","60647","32",1643,-8.31661705339177,0.0440083990837636,0.144230506541977
"752","Single-Family & Residential Condominiums","60647","33",9,-9.56936952840671,0.0483326220822712,0.173594874793822
"753","Single-Family & Residential Condominiums","60647","35",663,-10.6386804792731,0.0479323883741563,0.175199987946386
"754","Single-Family & Residential Condominiums","60647","47",1,-8.23946985421788,0.0423114537444934,0.127740969162996
"755","Single-Family & Residential Condominiums","60649","5",702,-9.17238813619591,0.0402646458962091,0.135388081246467
"756","Single-Family & Residential Condominiums","60649","7",1421,-9.64471284895827,0.0419987257230676,0.145923792596426
"757","Single-Family & Residential Condominiums","60649","8",962,-9.64471284895827,0.0403719483547095,0.138141763889502
"758","Single-Family & Residential Condominiums","60651","26",938,-11.3458814524846,0.0503427160780835,0.200742427132122
"759","Single-Family & Residential Condominiums","60651","27",452,-10.3354786107052,0.045893531363597,0.169241914627562
"760","Single-Family & Residential Condominiums","60651","28",2,-10.1232484860073,0.0483826720523571,0.192387646998671
"761","Single-Family & Residential Condominiums","60651","29",1153,-9.97773400364653,0.0445949632318003,0.166530948100694
"762","Single-Family & Residential Condominiums","60651","37",2856,-10.0260664281596,0.0459019616409747,0.172958554126674
"763","Single-Family & Residential Condominiums","60652","18",11715,-9.7872460525584,0.044498738688297,0.165180937896366
"764","Single-Family & Residential Condominiums","60653","3",603,-9.30282309391017,0.0422684111822987,0.147256255311128
"765","Single-Family & Residential Condominiums","60653","4",1010,-9.30282309391017,0.0422477585153928,0.148771329610291
"766","Single-Family & Residential Condominiums","60654","2",1,-7.88984975890821,0.0402430463576159,0.12747880794702
"767","Single-Family & Residential Condominiums","60654","42",135,-9.19392669012087,0.0420796448667581,0.135601337165572
"768","Single-Family & Residential Condominiums","60655","19",9638,-8.74079205634257,0.0394130113456734,0.13088330723725
"769","Single-Family & Residential Condominiums","60655",NA,92,-10.9243898503449,0.0429856938483548,0.166897711015737
"770","Single-Family & Residential Condominiums","60656","38",613,-9.89953099452685,0.041504745470233,0.14509404659189
"771","Single-Family & Residential Condominiums","60656","41",4134,-9.90245733644372,0.0436604821318776,0.157990038071468
"772","Single-Family & Residential Condominiums","60656","45",1114,-9.90245733644372,0.043612040947493,0.157281495905687
"773","Single-Family & Residential Condominiums","60656",NA,121,-10.0553146394866,0.044543134283191,0.163221628128126
"774","Single-Family & Residential Condominiums","60657","32",1270,-8.30274263869724,0.042143233821724,0.134254668578848
"775","Single-Family & Residential Condominiums","60657","44",875,-8.19944547345179,0.0429261836593548,0.13553529721944
"776","Single-Family & Residential Condominiums","60657","46",29,-8.69891094396824,0.0447233226326477,0.148690879388349
"777","Single-Family & Residential Condominiums","60657","47",329,-8.91792701470621,0.0428054048441074,0.14074582390053
"778","Single-Family & Residential Condominiums","60658",NA,11,-10.9243898503449,0.0429856938483548,0.166897711015737
"779","Single-Family & Residential Condominiums","60659","39",947,-10.5042432570988,0.0429519424292295,0.161333336671739
"780","Single-Family & Residential Condominiums","60659","40",872,-10.94383184925,0.0454270228871313,0.17429115589046
"781","Single-Family & Residential Condominiums","60659","50",1304,-10.0991054522372,0.0443413380665021,0.17026799924403
"782","Single-Family & Residential Condominiums","60660","40",671,-10.4171439451463,0.0461060146451048,0.172162889489937
"783","Single-Family & Residential Condominiums","60660","48",650,-9.62035044433641,0.0434357783546106,0.155302564351488
"784","Single-Family & Residential Condominiums","60660","50",1,-9.8501245313973,0.0506841322928279,0.193646228167967
"785","Single-Family & Residential Condominiums","60661","42",24,-8.6266365418117,0.0400314086891104,0.124834681211209
"786","Single-Family & Residential Condominiums","60706","41",1,-9.53158780947618,0.043164046479836,0.155866028708134
"787","Single-Family & Residential Condominiums","60706",NA,6460,-10.9420845278001,0.0448786085064108,0.174091682510768
"788","Single-Family & Residential Condominiums","60707","29",2649,-11.0326532861174,0.0449222414881563,0.170881118511066
"789","Single-Family & Residential Condominiums","60707","36",964,-11.0326532861174,0.0499927842918856,0.206556396918763
"790","Single-Family & Residential Condominiums","60707",NA,5138,-10.7485905206158,0.0459080813135504,0.174408913647487
"791","Single-Family & Residential Condominiums","60712",NA,4337,-10.3731208385164,0.0424826950767895,0.157538690966553
"792","Single-Family & Residential Condominiums","60714",NA,7772,-10.4090384507045,0.0457022918364251,0.174897515786457
"793","Single-Family & Residential Condominiums","60803","19",5,-8.74079205634257,0.0382615702479339,0.126178512396694
"794","Single-Family & Residential Condominiums","60803",NA,4945,-10.9041010533758,0.0455431594374356,0.178771999454796
"795","Single-Family & Residential Condominiums","60804",NA,8579,-11.8940509914067,0.0497945059896025,0.204580776615118
"796","Single-Family & Residential Condominiums","60805","19",1,-9.3191564956546,0.0404680105170903,0.138795793163891
"797","Single-Family & Residential Condominiums","60805",NA,7397,-10.1054858876231,0.0429008854588542,0.156951715772544
"798","Single-Family & Residential Condominiums","60827","34",1,-9.47605732329012,0.0442439729990357,0.160196721311475
"799","Single-Family & Residential Condominiums","60827","9",476,-9.8242084999378,0.045545440852977,0.164630416069684
"800","Single-Family & Residential Condominiums","60827",NA,5438,-9.97640470159531,0.0438065325319446,0.159005507216732
"801","Single-Family & Residential Condominiums",NA,"1",61,-9.58183258397023,0.0449013414588816,0.15240888027086
"802","Single-Family & Residential Condominiums",NA,"11",39,-8.74398969075067,0.0457525174161135,0.161355947400805
"803","Single-Family & Residential Condominiums",NA,"12",11,-10.9227888950532,0.0496101480950836,0.18984672057096
"804","Single-Family & Residential Condominiums",NA,"19",5,-8.67410314492746,0.0410215189873418,0.130854430379747
"805","Single-Family & Residential Condominiums",NA,"2",1,-8.20225113223954,0.0405784966698383,0.138943862987631
"806","Single-Family & Residential Condominiums",NA,"20",3,-9.23561306592489,0.0392183595871809,0.133138511678436
"807","Single-Family & Residential Condominiums",NA,"23",1,-10.1356123387986,0.0477383592017738,0.180988913525499
"808","Single-Family & Residential Condominiums",NA,"25",19,-10.5173461691729,0.0483929703569268,0.175582665603984
"809","Single-Family & Residential Condominiums",NA,"26",6,-9.19392669012087,0.0463596256206909,0.164103691053332
"810","Single-Family & Residential Condominiums",NA,"27",6,-7.84784468599165,0.0425469871230533,0.130479870936399
"811","Single-Family & Residential Condominiums",NA,"28",2,-10.1704658736104,0.0483754329004329,0.184854761904762
"812","Single-Family & Residential Condominiums",NA,"3",15,-9.30282309391017,0.0412453768947625,0.140083977481496
"813","Single-Family & Residential Condominiums",NA,"32",11,-9.30161739431352,0.0432403910545403,0.143989188088389
"814","Single-Family & Residential Condominiums",NA,"33",5,-9.56936952840671,0.0482736335582546,0.173242208367072
"815","Single-Family & Residential Condominiums",NA,"34",3,-9.47605732329012,0.041793808411215,0.140429984423676
"816","Single-Family & Residential Condominiums",NA,"37",1,-11.3458814524846,0.0470239015817223,0.193391212653779
"817","Single-Family & Residential Condominiums",NA,"39",4,-10.1459287997274,0.0441300768159892,0.154507176819177
"818","Single-Family & Residential Condominiums",NA,"4",17,-9.30282309391017,0.0398325359283622,0.137368826628585
"819","Single-Family & Residential Condominiums",NA,"40",4,-10.4171439451463,0.0450195479535736,0.167159437996335
"820","Single-Family & Residential Condominiums",NA,"41",2,-9.82774138061658,0.0423703922825497,0.147170802005013
"821","Single-Family & Residential Condominiums",NA,"43",7,-7.8618596165205,0.0423589893585454,0.13476956404494
"822","Single-Family & Residential Condominiums",NA,"45",6,-10.1937379079122,0.0471277658238212,0.175892492688556
"823","Single-Family & Residential Condominiums",NA,"46",1,-10.1329124535056,0.0447665819274324,0.158948463138433
"824","Single-Family & Residential Condominiums",NA,"47",10,-8.88479660233927,0.0443263858503889,0.147916121105314
"825","Single-Family & Residential Condominiums",NA,"50",4,-9.63880462899417,0.0448892184541363,0.164813053295567
"826","Single-Family & Residential Condominiums",NA,"8",3,-9.64471284895827,0.0448156210522562,0.161910253431681
"827","Single-Family & Residential Condominiums",NA,NA,18456,-9.37054844711728,0.0442785419361993,0.155286314889025
